{
  "log" : {
    "version" : "1.2",
    "pages" : [ ],
    "entries" : [ {
      "startedDateTime" : "2020-07-10T02:45:51.301Z",
      "request" : {
        "method" : "POST",
        "url" : "https://pickpack-core-api-stg.ctdigital.id/picker/get/order/headers/v1",
        "httpVersion" : "",
        "cookies" : [ ],
        "headers" : [ {
          "name" : "Content-Type",
          "value" : "application/json"
        } ],
        "queryString" : [ ],
        "postData" : {
          "mimeType" : "application/json",
          "text" : "{\n    \"last_modified_date\": \"2020-07-10 01:01:01.123456\",\n    \"token_id\": \"9e4f8997032745e5b1e5c9129be25a7d1594349152476928\"\n}",
          "comment" : ""
        },
        "headersSize" : 0,
        "bodySize" : 0,
        "comment" : ""
      },
      "response" : {
        "status" : 202,
        "statusText" : "",
        "httpVersion" : "",
        "cookies" : [ ],
        "headers" : [ {
          "name" : "x-envoy-upstream-service-time",
          "value" : "5"
        }, {
          "name" : "Server",
          "value" : "cloudflare"
        }, {
          "name" : "CF-RAY",
          "value" : "5b06f38d1bdccc30-SIN"
        }, {
          "name" : "vary",
          "value" : "Origin"
        }, {
          "name" : "X-Content-Type-Options",
          "value" : "nosniff"
        }, {
          "name" : "Connection",
          "value" : "keep-alive"
        }, {
          "name" : "Date",
          "value" : "Fri, 10 Jul 2020 02:45:55 GMT"
        }, {
          "name" : "access-control-allow-origin",
          "value" : "*"
        }, {
          "name" : "CF-Cache-Status",
          "value" : "DYNAMIC"
        }, {
          "name" : "Strict-Transport-Security",
          "value" : "max-age=2592000; includeSubDomains; preload"
        }, {
          "name" : "Set-Cookie",
          "value" : "__cfduid=d98defb712e1b174a3b6d8ed22413f3ef1594349155; expires=Sun, 09-Aug-20 02:45:55 GMT; path=/; domain=.ctdigital.id; HttpOnly; SameSite=Lax"
        }, {
          "name" : "#status#",
          "value" : "HTTP/1.1 202 Accepted"
        }, {
          "name" : "Content-Length",
          "value" : "1656"
        }, {
          "name" : "Content-Type",
          "value" : "application/json; charset=UTF-8"
        }, {
          "name" : "cf-request-id",
          "value" : "03d8368c2c0000cc3001800200000001"
        }, {
          "name" : "Expect-CT",
          "value" : "max-age=604800, report-uri=\"https://report-uri.cloudflare.com/cdn-cgi/beacon/expect-ct\""
        } ],
        "content" : {
          "size" : 1656,
          "mimeType" : "application/json; charset=UTF-8",
          "text" : "{\"error_code\":-11,\"error_message\":\"[\\\"10710cf8de854977bb9f14982408e02152413200407132009880sxqoiyitpw7393168223\\\",\\\"1650f40912cf49079499c50ed9bb939248853200507002009290ncdgdqcvfq1018376355\\\",\\\"277282437dbc43d084c92caad1a13d3918841200407152009807qynerhqddl6206836172\\\",\\\"3d5d916486314aa088910c08ee07a40558210201507082009314rrhyflnjwi5232283065\\\",\\\"3e22618a69d5482bb1b23e553c38b63d41711200407422009682ywfnazigzy4097867191\\\",\\\"40211558efa44ee4823165c4705121a061029201407342009167kciqrtfvgg9691281278\\\",\\\"4037ddf6406e4454aedad1fc65ae8f1f87840200707502009867aulejnqqiz7860652760\\\",\\\"69955fef42ea42268a2164fab231196703221202207432009289xmuguiewzq1389824848\\\",\\\"6ccc737da31b426fbd164d7eb7c0425284119200707362009770uxqltmenxn3254168275\\\",\\\"7c8eb9d466d846ee8c778bf726661b9293209200407462009338orbihkvnai9539494639\\\",\\\"81561711449648e089be4618a25547ba39944202207462009228mtyqrqxlch3514384874\\\",\\\"84814fa2e81b4a1a97c65f78d87f3c4232538200607572009590mobhywytan6989401815\\\",\\\"8e29f5e4ede444e5bf555acd760c6b2889640200707472009281phfqnxheet5268895620\\\",\\\"91fc7b8fe9e04fb4b26b90e54a38284e70534200707462009044gejxaqldnm5043106023\\\",\\\"960237fadff444b8b95dba0d2174d8cc42130200707422009506soxvcoahjg2955110505\\\",\\\"a0dd1cad260643ae89835486fb2feccb87131200607532009517ifrclnjuof4477782601\\\",\\\"a9e2f0ca54034a789834992ac13aa9b004531200707522009995nfdjuhezpk3145066693\\\",\\\"b34fc28bf8f443b393eec63eab86341a53851200807162009409vlzojhtgqr0222366054\\\",\\\"e28b3ba983fe4cf684740742b3fb239911145200407162009712atvbsutzib8427577686\\\",\\\"eec2f0266d3a45f7b249e2c57a4db99259753200807132009293eqcobemtqd8561558597\\\",\\\"fb1a1d862dc3494480d4bcdd0dc9ad2305525201507062009274ioahglrpan9781261030\\\"]\"}\n",
          "comment" : ""
        },
        "redirectURL" : "",
        "headersSize" : 637,
        "bodySize" : 1656,
        "comment" : ""
      },
      "cache" : { },
      "timings" : {
        "comment" : "",
        "ssl" : -1,
        "connect" : 186,
        "dns" : -1,
        "blocked" : -1,
        "send" : 0,
        "wait" : 0,
        "receive" : 0
      },
      "comment" : "",
      "_katalonRequestInformation" : {
        "name" : "4",
        "testObjectId" : "Object Repository/API/PickerApps/2_Order/1_get_orders_headers",
        "harId" : "ee006eef-2e1b-4e49-81fd-d0a07caada74",
        "reportFolder" : null
      },
      "time" : 186
    } ],
    "comment" : ""
  }
}