{
  "log" : {
    "version" : "1.2",
    "pages" : [ ],
    "entries" : [ {
      "startedDateTime" : "2020-07-09T06:53:20.521Z",
      "request" : {
        "method" : "POST",
        "url" : "https://oms-tm-api-stg.ctdigital.id/login",
        "httpVersion" : "",
        "cookies" : [ ],
        "headers" : [ {
          "name" : "dest",
          "value" : "omega"
        }, {
          "name" : "Content-Type",
          "value" : "application/json"
        } ],
        "queryString" : [ ],
        "postData" : {
          "mimeType" : "application/json",
          "text" : "{\n    \"username\": \"admin@ct.co.id\",\n    \"password\": \"admin\"\n}",
          "comment" : ""
        },
        "headersSize" : 0,
        "bodySize" : 0,
        "comment" : ""
      },
      "response" : {
        "status" : 200,
        "statusText" : "",
        "httpVersion" : "",
        "cookies" : [ ],
        "headers" : [ {
          "name" : "Transfer-Encoding",
          "value" : "chunked"
        }, {
          "name" : "x-envoy-upstream-service-time",
          "value" : "104"
        }, {
          "name" : "Server",
          "value" : "cloudflare"
        }, {
          "name" : "CF-RAY",
          "value" : "5b0020addd4fcc2c-SIN"
        }, {
          "name" : "vary",
          "value" : "Origin"
        }, {
          "name" : "x-frame-options",
          "value" : "DENY"
        }, {
          "name" : "Connection",
          "value" : "keep-alive"
        }, {
          "name" : "x-download-options",
          "value" : "noopen"
        }, {
          "name" : "Date",
          "value" : "Thu, 09 Jul 2020 06:53:23 GMT"
        }, {
          "name" : "strict-transport-security",
          "value" : "max-age=2592000; includeSubDomains; preload"
        }, {
          "name" : "CF-Cache-Status",
          "value" : "DYNAMIC"
        }, {
          "name" : "x-content-type-options",
          "value" : "nosniff"
        }, {
          "name" : "x-xss-protection",
          "value" : "1; mode=block"
        }, {
          "name" : "x-dns-prefetch-control",
          "value" : "off"
        }, {
          "name" : "Set-Cookie",
          "value" : "__cfduid=d19d23d788d25fdab3f7bf76d97fc1e2f1594277603; expires=Sat, 08-Aug-20 06:53:23 GMT; path=/; domain=.ctdigital.id; HttpOnly; SameSite=Lax"
        }, {
          "name" : "#status#",
          "value" : "HTTP/1.1 200 OK"
        }, {
          "name" : "Content-Type",
          "value" : "application/json; charset=UTF-8"
        }, {
          "name" : "cf-request-id",
          "value" : "03d3f2c0a50000cc2cb49f8200000001"
        }, {
          "name" : "Expect-CT",
          "value" : "max-age=604800, report-uri=\"https://report-uri.cloudflare.com/cdn-cgi/beacon/expect-ct\""
        } ],
        "content" : {
          "size" : 391,
          "mimeType" : "application/json; charset=UTF-8",
          "text" : "{\n  \"content\": {\n    \"token\": \"eyJhbGciOiJIUzI1NiIsInR5cCI6IkpXVCJ9.eyJlIjoiYWRtaW5AY3QuY28uaWQiLCJleHAiOjE1OTQzMDY0MDMsImlkIjoxLCJtIjoiVFJUTE1SVDAwMSIsIm4iOiJBZG1pbiIsInIiOiJzdXBlcmFkbWluIiwicyI6ImFsbCJ9.qtKRsg9whzFzpcei6_pUagwqwyyhhMc2PBTHNbl3INQ\",\n    \"expires\": \"2020-07-09 14:53:23\",\n    \"refresh_token\": \"9a0ab9d78c3a1893bd650a9e02d7d89a5be7569d\"\n  },\n  \"message\": \"\",\n  \"code\": 200\n}\n",
          "comment" : ""
        },
        "redirectURL" : "",
        "headersSize" : 714,
        "bodySize" : -1,
        "comment" : ""
      },
      "cache" : { },
      "timings" : {
        "comment" : "",
        "ssl" : -1,
        "connect" : 3140,
        "dns" : -1,
        "blocked" : -1,
        "send" : 0,
        "wait" : 0,
        "receive" : 0
      },
      "comment" : "",
      "_katalonRequestInformation" : {
        "name" : "0",
        "testObjectId" : "Object Repository/OMS/Auth/login",
        "harId" : "0c7a7fcf-04dc-4fac-8d2f-c6b2c649b27b",
        "reportFolder" : null
      },
      "time" : 3140
    } ],
    "comment" : ""
  }
}