{
  "log" : {
    "version" : "1.2",
    "pages" : [ ],
    "entries" : [ {
      "startedDateTime" : "2020-01-29T07:15:08.482Z",
      "request" : {
        "method" : "POST",
        "url" : "http://34.68.240.28/v1/store",
        "httpVersion" : "",
        "cookies" : [ ],
        "headers" : [ {
          "name" : "dest",
          "value" : "stargazer"
        }, {
          "name" : "Content-Type",
          "value" : "application/json"
        }, {
          "name" : "Authorization",
          "value" : "bearer eyJhbGciOiJIUzI1NiIsInR5cCI6IkpXVCJ9.eyJleHAiOjE1ODAzMTA5MDV9.v4AAPD6g3T7Ll17fTJv0aMBTHy6qaBfLBk0a-7SmzWQ"
        } ],
        "queryString" : [ ],
        "postData" : {
          "mimeType" : "application/json",
          "text" : "{\n    \"store_id\": \"13\",\n    \"store_code\": \"EAG-SC\",\n    \"offline_code\": \"EAG-BSMI\",\n    \"store_name\": \"Aigner BSMI\",\n    \"store_address\": \"Bandung Super Mall GF#A049 Jl. Gatot Subroto, 289 Bandung 40273\",\n    \"store_zipcode\": \"40273\",\n    \"province\": \"JAWA BARAT\",\n    \"city\": \"Kota Bandung\",\n    \"district\": \"Batununggal\",\n    \"latitude\": -6.946683999999999,\n    \"longitude\": 107.668137,\n    \"Phone\": \"02286012315\",\n    \"email\": \"store.eag.bsmmmmmmgmm@transfashionindonesia.com\",\n    \"business_unit_code\": \"TRTLTFI001\"\n}",
          "comment" : ""
        },
        "headersSize" : 0,
        "bodySize" : 0,
        "comment" : ""
      },
      "response" : {
        "status" : 404,
        "statusText" : "",
        "httpVersion" : "",
        "cookies" : [ ],
        "headers" : [ {
          "name" : "date",
          "value" : "Wed, 29 Jan 2020 07:15:08 GMT"
        }, {
          "name" : "content-length",
          "value" : "36"
        }, {
          "name" : "server",
          "value" : "istio-envoy"
        }, {
          "name" : "x-envoy-upstream-service-time",
          "value" : "1"
        }, {
          "name" : "x-content-type-options",
          "value" : "nosniff"
        }, {
          "name" : "Connection",
          "value" : "keep-alive"
        }, {
          "name" : "content-type",
          "value" : "application/json"
        }, {
          "name" : "#status#",
          "value" : "HTTP/1.1 404 Not Found"
        }, {
          "name" : "Via",
          "value" : "HTTP/1.1 forward.http.proxy:3128"
        } ],
        "content" : {
          "size" : 36,
          "mimeType" : "application/json",
          "text" : "{\n\t\"message\": \"404 page not found\"\n}",
          "comment" : ""
        },
        "redirectURL" : "",
        "headersSize" : 208,
        "bodySize" : 36,
        "comment" : ""
      },
      "cache" : { },
      "timings" : {
        "comment" : "",
        "ssl" : -1,
        "connect" : 495,
        "dns" : -1,
        "send" : 0,
        "wait" : 0,
        "receive" : 0,
        "blocked" : -1
      },
      "comment" : "",
      "_katalonRequestInformation" : {
        "name" : "2",
        "testObjectId" : "Object Repository/IMS_NEW/Auth/Login",
        "harId" : "14941da7-f9bc-4104-abce-0cfea36943a0",
        "reportFolder" : null
      },
      "time" : 495
    } ],
    "comment" : ""
  }
}