{
  "log" : {
    "version" : "1.2",
    "pages" : [ ],
    "entries" : [ {
      "startedDateTime" : "2020-07-10T06:45:59.178Z",
      "request" : {
        "method" : "POST",
        "url" : "https://pickpack-core-api-stg.ctdigital.id/picker/get/order/headers/v1",
        "httpVersion" : "",
        "cookies" : [ ],
        "headers" : [ {
          "name" : "Content-Type",
          "value" : "application/json"
        } ],
        "queryString" : [ ],
        "postData" : {
          "mimeType" : "application/json",
          "text" : "{\n    \"last_modified_date\": \"2020-07-10 01:01:01.123456\",\n    \"token_id\": \"4ca49f758b12469d9017fc41949ee55d1594363556437743\"\n}",
          "comment" : ""
        },
        "headersSize" : 0,
        "bodySize" : 0,
        "comment" : ""
      },
      "response" : {
        "status" : 200,
        "statusText" : "",
        "httpVersion" : "",
        "cookies" : [ ],
        "headers" : [ {
          "name" : "Transfer-Encoding",
          "value" : "chunked"
        }, {
          "name" : "x-envoy-upstream-service-time",
          "value" : "9"
        }, {
          "name" : "Server",
          "value" : "cloudflare"
        }, {
          "name" : "CF-RAY",
          "value" : "5b0853375bfdddb3-SIN"
        }, {
          "name" : "vary",
          "value" : "Origin"
        }, {
          "name" : "X-Content-Type-Options",
          "value" : "nosniff"
        }, {
          "name" : "Connection",
          "value" : "keep-alive"
        }, {
          "name" : "Date",
          "value" : "Fri, 10 Jul 2020 06:45:59 GMT"
        }, {
          "name" : "access-control-allow-origin",
          "value" : "*"
        }, {
          "name" : "CF-Cache-Status",
          "value" : "DYNAMIC"
        }, {
          "name" : "Strict-Transport-Security",
          "value" : "max-age=2592000; includeSubDomains; preload"
        }, {
          "name" : "Set-Cookie",
          "value" : "__cfduid=d433a8039f30941fa88fb7771f8b01eff1594363559; expires=Sun, 09-Aug-20 06:45:59 GMT; path=/; domain=.ctdigital.id; HttpOnly; SameSite=Lax"
        }, {
          "name" : "#status#",
          "value" : "HTTP/1.1 200 OK"
        }, {
          "name" : "Content-Type",
          "value" : "application/json; charset=UTF-8"
        }, {
          "name" : "cf-request-id",
          "value" : "03d91256970000ddb32d937200000001"
        }, {
          "name" : "Expect-CT",
          "value" : "max-age=604800, report-uri=\"https://report-uri.cloudflare.com/cdn-cgi/beacon/expect-ct\""
        } ],
        "content" : {
          "size" : 3641,
          "mimeType" : "application/json; charset=UTF-8",
          "text" : "[{\"user_id\":\"\",\"order_header_uid\":\"06145628941e42d4b3f2c842e691f79387703200407132010357nuiqsvbezh6911164980\",\"order_id\":\"TRTLMRT001T773-1\",\"order_name\":\"ORD 24\",\"order_number\":24,\"order_type\":2,\"order_awb\":\"\",\"order_action\":0,\"order_date\":\"2020-07-01 14:56:01\",\"merchant_code\":\"TRTLMRT001\",\"merchant_name\":\"Transmart\",\"store_code\":\"10059\",\"store_name\":\"Transmart Central Park\",\"reference_number\":\"TRTLMRT001T774\",\"customer_name\":\"muhammad nur trianto Qahfi saDam\",\"customer_phone\":\"080989898989\",\"customer_email\":\"Bambang@gmail.com\",\"shipping_address\":\"Jl. Kapten Tendean No.12-14A, RT.2/RW.2, Jakarta SElatan\",\"logistic_courier_code\":0,\"logistic_courier_name\":\"\",\"logistic_courier_type_code\":2,\"logistic_courier_type_name\":\"\",\"receiver_name\":\"Bambang\",\"receiver_phone\":\"0809898989\",\"estimated_pickup_date\":\"2020-07-01 17:01:01\",\"pickup_date\":\"2020-07-01 17:01:01\",\"modified_date\":\"2020-07-10 04:13:03.877336\"},{\"user_id\":\"\",\"order_header_uid\":\"ec03638bd78448bb8193ccdae647ba7a70336200407192010327phczdjeyml5404617766\",\"order_id\":\"TRTLMRT001T866-1\",\"order_name\":\"ORD 25\",\"order_number\":25,\"order_type\":2,\"order_awb\":\"\",\"order_action\":0,\"order_date\":\"2020-07-01 14:56:01\",\"merchant_code\":\"TRTLMRT001\",\"merchant_name\":\"Transmart\",\"store_code\":\"10059\",\"store_name\":\"Transmart Central Park\",\"reference_number\":\"TRTLMRT001T867\",\"customer_name\":\"muhammad nur trianto Qahfi saDam\",\"customer_phone\":\"080989898989\",\"customer_email\":\"Bambang@gmail.com\",\"shipping_address\":\"Jl. Kapten Tendean No.12-14A, RT.2/RW.2, Jakarta SElatan\",\"logistic_courier_code\":0,\"logistic_courier_name\":\"\",\"logistic_courier_type_code\":2,\"logistic_courier_type_name\":\"\",\"receiver_name\":\"Bambang\",\"receiver_phone\":\"0809898989\",\"estimated_pickup_date\":\"2020-07-01 17:01:01\",\"pickup_date\":\"2020-07-01 17:01:01\",\"modified_date\":\"2020-07-10 04:19:36.703243\"},{\"user_id\":\"\",\"order_header_uid\":\"ae62eb32dbe3483087b90bcfe87e4f3f53530200607272010857rqjlxoztyh1646304250\",\"order_id\":\"TRTLMRT001T565-1\",\"order_name\":\"ORD 26\",\"order_number\":26,\"order_type\":2,\"order_awb\":\"\",\"order_action\":0,\"order_date\":\"2020-07-01 14:56:01\",\"merchant_code\":\"TRTLMRT001\",\"merchant_name\":\"Transmart\",\"store_code\":\"10059\",\"store_name\":\"Transmart Central Park\",\"reference_number\":\"TRTLMRT001T566\",\"customer_name\":\"muhammad nur trianto Qahfi saDam\",\"customer_phone\":\"080989898989\",\"customer_email\":\"Bambang@gmail.com\",\"shipping_address\":\"Jl. Kapten Tendean No.12-14A, RT.2/RW.2, Jakarta SElatan\",\"logistic_courier_code\":0,\"logistic_courier_name\":\"\",\"logistic_courier_type_code\":2,\"logistic_courier_type_name\":\"\",\"receiver_name\":\"Bambang\",\"receiver_phone\":\"0809898989\",\"estimated_pickup_date\":\"2020-07-01 17:01:01\",\"pickup_date\":\"2020-07-01 17:01:01\",\"modified_date\":\"2020-07-10 06:27:30.535819\"},{\"user_id\":\"\",\"order_header_uid\":\"b3f4736de1444ee89e5d6b8439ae95c067851200607452010839ptjkfelhas9776357275\",\"order_id\":\"TRTLMRT001T445-1\",\"order_name\":\"ORD 27\",\"order_number\":27,\"order_type\":2,\"order_awb\":\"\",\"order_action\":0,\"order_date\":\"2020-07-01 14:56:01\",\"merchant_code\":\"TRTLMRT001\",\"merchant_name\":\"Transmart\",\"store_code\":\"10059\",\"store_name\":\"Transmart Central Park\",\"reference_number\":\"TRTLMRT001T446\",\"customer_name\":\"muhammad nur trianto Qahfi saDam\",\"customer_phone\":\"080989898989\",\"customer_email\":\"Bambang@gmail.com\",\"shipping_address\":\"Jl. Kapten Tendean No.12-14A, RT.2/RW.2, Jakarta SElatan\",\"logistic_courier_code\":0,\"logistic_courier_name\":\"\",\"logistic_courier_type_code\":2,\"logistic_courier_type_name\":\"\",\"receiver_name\":\"Bambang\",\"receiver_phone\":\"0809898989\",\"estimated_pickup_date\":\"2020-07-01 17:01:01\",\"pickup_date\":\"2020-07-01 17:01:01\",\"modified_date\":\"2020-07-10 06:45:51.678746\"}]",
          "comment" : ""
        },
        "redirectURL" : "",
        "headersSize" : 643,
        "bodySize" : -1,
        "comment" : ""
      },
      "cache" : { },
      "timings" : {
        "comment" : "",
        "ssl" : -1,
        "connect" : 462,
        "dns" : -1,
        "blocked" : -1,
        "send" : 0,
        "wait" : 0,
        "receive" : 0
      },
      "comment" : "",
      "_katalonRequestInformation" : {
        "name" : "4",
        "testObjectId" : "Object Repository/API/PickerApps/2_Order/1_get_orders_headers",
        "harId" : "fa19b875-db13-4436-8e44-c3494be93204",
        "reportFolder" : null
      },
      "time" : 462
    } ],
    "comment" : ""
  }
}