{
  "log" : {
    "version" : "1.2",
    "pages" : [ ],
    "entries" : [ {
      "startedDateTime" : "2020-07-10T06:46:02.023Z",
      "request" : {
        "method" : "POST",
        "url" : "https://pickpack-core-api-stg.ctdigital.id/picker/create/task/v1",
        "httpVersion" : "",
        "cookies" : [ ],
        "headers" : [ {
          "name" : "Content-Type",
          "value" : "application/json"
        } ],
        "queryString" : [ ],
        "postData" : {
          "mimeType" : "application/json",
          "text" : "{\n    \"token_id\": \"4ca49f758b12469d9017fc41949ee55d1594363556437743\"\n}",
          "comment" : ""
        },
        "headersSize" : 0,
        "bodySize" : 0,
        "comment" : ""
      },
      "response" : {
        "status" : 202,
        "statusText" : "",
        "httpVersion" : "",
        "cookies" : [ ],
        "headers" : [ {
          "name" : "x-envoy-upstream-service-time",
          "value" : "8"
        }, {
          "name" : "Server",
          "value" : "cloudflare"
        }, {
          "name" : "CF-RAY",
          "value" : "5b0853472c21ddaf-SIN"
        }, {
          "name" : "vary",
          "value" : "Origin"
        }, {
          "name" : "X-Content-Type-Options",
          "value" : "nosniff"
        }, {
          "name" : "Connection",
          "value" : "keep-alive"
        }, {
          "name" : "Date",
          "value" : "Fri, 10 Jul 2020 06:46:02 GMT"
        }, {
          "name" : "access-control-allow-origin",
          "value" : "*"
        }, {
          "name" : "CF-Cache-Status",
          "value" : "DYNAMIC"
        }, {
          "name" : "Strict-Transport-Security",
          "value" : "max-age=2592000; includeSubDomains; preload"
        }, {
          "name" : "Set-Cookie",
          "value" : "__cfduid=d0be64d88c580290f5515769058a560f61594363562; expires=Sun, 09-Aug-20 06:46:02 GMT; path=/; domain=.ctdigital.id; HttpOnly; SameSite=Lax"
        }, {
          "name" : "#status#",
          "value" : "HTTP/1.1 202 Accepted"
        }, {
          "name" : "Content-Length",
          "value" : "65"
        }, {
          "name" : "Content-Type",
          "value" : "application/json; charset=UTF-8"
        }, {
          "name" : "cf-request-id",
          "value" : "03d91260790000ddaf6411d200000001"
        }, {
          "name" : "Expect-CT",
          "value" : "max-age=604800, report-uri=\"https://report-uri.cloudflare.com/cdn-cgi/beacon/expect-ct\""
        } ],
        "content" : {
          "size" : 65,
          "mimeType" : "application/json; charset=UTF-8",
          "text" : "{\"error_code\":1110,\"error_message\":\"parameters cannot be empty\"}\n",
          "comment" : ""
        },
        "redirectURL" : "",
        "headersSize" : 635,
        "bodySize" : 65,
        "comment" : ""
      },
      "cache" : { },
      "timings" : {
        "comment" : "",
        "ssl" : -1,
        "connect" : 177,
        "dns" : -1,
        "blocked" : -1,
        "send" : 0,
        "wait" : 0,
        "receive" : 0
      },
      "comment" : "",
      "_katalonRequestInformation" : {
        "name" : "5",
        "testObjectId" : "Object Repository/API/PickerApps/2_Order/1_get_orders_headers",
        "harId" : "6979384d-4d7d-4a23-8d6a-b3ee058abb9a",
        "reportFolder" : null
      },
      "time" : 177
    } ],
    "comment" : ""
  }
}