{
  "log" : {
    "version" : "1.2",
    "pages" : [ ],
    "entries" : [ {
      "startedDateTime" : "2020-07-08T06:38:45.605Z",
      "request" : {
        "method" : "POST",
        "url" : "https://oms-tm-api-stg.ctdigital.id/login",
        "httpVersion" : "",
        "cookies" : [ ],
        "headers" : [ {
          "name" : "dest",
          "value" : "omega"
        }, {
          "name" : "Content-Type",
          "value" : "application/json"
        } ],
        "queryString" : [ ],
        "postData" : {
          "mimeType" : "application/json",
          "text" : "{\n    \"username\": \"admin@ct.co.id\",\n    \"password\": \"admin\"\n}",
          "comment" : ""
        },
        "headersSize" : 0,
        "bodySize" : 0,
        "comment" : ""
      },
      "response" : {
        "status" : 200,
        "statusText" : "",
        "httpVersion" : "",
        "cookies" : [ ],
        "headers" : [ {
          "name" : "Transfer-Encoding",
          "value" : "chunked"
        }, {
          "name" : "x-envoy-upstream-service-time",
          "value" : "62"
        }, {
          "name" : "Server",
          "value" : "cloudflare"
        }, {
          "name" : "CF-RAY",
          "value" : "5af7cdec4bfcaa4e-SIN"
        }, {
          "name" : "vary",
          "value" : "Origin"
        }, {
          "name" : "x-frame-options",
          "value" : "DENY"
        }, {
          "name" : "Connection",
          "value" : "keep-alive"
        }, {
          "name" : "x-download-options",
          "value" : "noopen"
        }, {
          "name" : "Date",
          "value" : "Wed, 08 Jul 2020 06:38:47 GMT"
        }, {
          "name" : "strict-transport-security",
          "value" : "max-age=2592000; includeSubDomains; preload"
        }, {
          "name" : "CF-Cache-Status",
          "value" : "DYNAMIC"
        }, {
          "name" : "x-content-type-options",
          "value" : "nosniff"
        }, {
          "name" : "x-xss-protection",
          "value" : "1; mode=block"
        }, {
          "name" : "x-dns-prefetch-control",
          "value" : "off"
        }, {
          "name" : "Set-Cookie",
          "value" : "__cfduid=d0fb3704b62dc0d3fa1f2cc98f3d6d8e91594190327; expires=Fri, 07-Aug-20 06:38:47 GMT; path=/; domain=.ctdigital.id; HttpOnly; SameSite=Lax"
        }, {
          "name" : "#status#",
          "value" : "HTTP/1.1 200 OK"
        }, {
          "name" : "Content-Type",
          "value" : "application/json; charset=UTF-8"
        }, {
          "name" : "cf-request-id",
          "value" : "03cebf07a90000aa4ec2b70200000001"
        }, {
          "name" : "Expect-CT",
          "value" : "max-age=604800, report-uri=\"https://report-uri.cloudflare.com/cdn-cgi/beacon/expect-ct\""
        } ],
        "content" : {
          "size" : 391,
          "mimeType" : "application/json; charset=UTF-8",
          "text" : "{\n  \"content\": {\n    \"token\": \"eyJhbGciOiJIUzI1NiIsInR5cCI6IkpXVCJ9.eyJlIjoiYWRtaW5AY3QuY28uaWQiLCJleHAiOjE1OTQyMTkxMjcsImlkIjoxLCJtIjoiVFJUTE1SVDAwMSIsIm4iOiJBZG1pbiIsInIiOiJzdXBlcmFkbWluIiwicyI6ImFsbCJ9.Yd42ogoOZhi3Ahc8kxDOKDcJ5JQdkd-WkkXjdCPm504\",\n    \"expires\": \"2020-07-08 14:38:47\",\n    \"refresh_token\": \"7bfe3066a162571a09d05995a04583dfcef0a6fd\"\n  },\n  \"message\": \"\",\n  \"code\": 200\n}\n",
          "comment" : ""
        },
        "redirectURL" : "",
        "headersSize" : 713,
        "bodySize" : -1,
        "comment" : ""
      },
      "cache" : { },
      "timings" : {
        "comment" : "",
        "ssl" : -1,
        "connect" : 2259,
        "dns" : -1,
        "blocked" : -1,
        "send" : 0,
        "wait" : 0,
        "receive" : 0
      },
      "comment" : "",
      "_katalonRequestInformation" : {
        "name" : "0",
        "testObjectId" : "Object Repository/OMS/Auth/login",
        "harId" : "475ff058-b76b-4364-8716-aec8706f29b3",
        "reportFolder" : null
      },
      "time" : 2259
    } ],
    "comment" : ""
  }
}