[
  {
    "line": 2,
    "elements": [
      {
        "line": 5,
        "name": "",
        "description": "",
        "type": "background",
        "keyword": "Background",
        "steps": []
      },
      {
        "line": 7,
        "name": "User_create_my_task",
        "description": "",
        "id": "pickerapps---hit-endpoint-create-mytask;user-create-my-task",
        "type": "scenario",
        "keyword": "Scenario",
        "steps": [
          {
            "result": {
              "error_message": "java.lang.NullPointerException: Cannot invoke method getResponseText() on null object\r\n\tat org.codehaus.groovy.runtime.NullObject.invokeMethod(NullObject.java:91)\r\n\tat org.codehaus.groovy.runtime.callsite.PogoMetaClassSite.call(PogoMetaClassSite.java:48)\r\n\tat org.codehaus.groovy.runtime.callsite.CallSiteArray.defaultCall(CallSiteArray.java:48)\r\n\tat org.codehaus.groovy.runtime.callsite.NullCallSite.call(NullCallSite.java:35)\r\n\tat org.codehaus.groovy.runtime.callsite.CallSiteArray.defaultCall(CallSiteArray.java:48)\r\n\tat org.codehaus.groovy.runtime.callsite.AbstractCallSite.call(AbstractCallSite.java:113)\r\n\tat org.codehaus.groovy.runtime.callsite.AbstractCallSite.call(AbstractCallSite.java:117)\r\n\tat pickerApps.HIT_API_User_create_my_task(pickerApps.groovy:174)\r\n\tat ✽.User_create_my_task(C:/Users/CT Corp Digital/Katalon Studio/TransDigital/Include/features/Picker_Apps_/4_Create_Task.feature:8)\r\n",
              "duration": 11008329,
              "status": "failed"
            },
            "line": 8,
            "name": "User_create_my_task",
            "match": {
              "location": "pickerApps.HIT_API_User_create_my_task()"
            },
            "keyword": "Given "
          }
        ],
        "tags": [
          {
            "name": "@tag"
          }
        ]
      }
    ],
    "name": "PickerApps - Hit endpoint create mytask",
    "description": "",
    "id": "pickerapps---hit-endpoint-create-mytask",
    "keyword": "Feature",
    "uri": "C:/Users/CT Corp Digital/Katalon Studio/TransDigital/Include/features/Picker_Apps_/4_Create_Task.feature",
    "tags": [
      {
        "name": "@tag",
        "type": "Tag",
        "location": {
          "line": 1,
          "column": 1
        }
      }
    ]
  }
]