{
  "log" : {
    "version" : "1.2",
    "pages" : [ ],
    "entries" : [ {
      "startedDateTime" : "2020-07-09T04:12:44.581Z",
      "request" : {
        "method" : "POST",
        "url" : "https://pickpack-core-api-stg.ctdigital.id/sign/in/v1",
        "httpVersion" : "",
        "cookies" : [ ],
        "headers" : [ {
          "name" : "Content-Type",
          "value" : "application/json"
        } ],
        "queryString" : [ ],
        "postData" : {
          "mimeType" : "application/json",
          "text" : "{\n    \"username\": \"ooo-picker54@ctcd.com\",\n    \"password\": \"Picker01@\"\n}",
          "comment" : ""
        },
        "headersSize" : 0,
        "bodySize" : 0,
        "comment" : ""
      },
      "response" : {
        "status" : 200,
        "statusText" : "",
        "httpVersion" : "",
        "cookies" : [ ],
        "headers" : [ {
          "name" : "Transfer-Encoding",
          "value" : "chunked"
        }, {
          "name" : "x-envoy-upstream-service-time",
          "value" : "207"
        }, {
          "name" : "Server",
          "value" : "cloudflare"
        }, {
          "name" : "CF-RAY",
          "value" : "5aff35687cd2a94c-SIN"
        }, {
          "name" : "vary",
          "value" : "Origin"
        }, {
          "name" : "X-Content-Type-Options",
          "value" : "nosniff"
        }, {
          "name" : "Connection",
          "value" : "keep-alive"
        }, {
          "name" : "Date",
          "value" : "Thu, 09 Jul 2020 04:12:47 GMT"
        }, {
          "name" : "access-control-allow-origin",
          "value" : "*"
        }, {
          "name" : "CF-Cache-Status",
          "value" : "DYNAMIC"
        }, {
          "name" : "Strict-Transport-Security",
          "value" : "max-age=2592000; includeSubDomains; preload"
        }, {
          "name" : "Set-Cookie",
          "value" : "__cfduid=d9bb448f73de4cbac0721cb7b1d8eb6681594267966; expires=Sat, 08-Aug-20 04:12:46 GMT; path=/; domain=.ctdigital.id; HttpOnly; SameSite=Lax"
        }, {
          "name" : "#status#",
          "value" : "HTTP/1.1 200 OK"
        }, {
          "name" : "Content-Type",
          "value" : "application/json; charset=UTF-8"
        }, {
          "name" : "cf-request-id",
          "value" : "03d35fb54f0000a94c8185d200000001"
        }, {
          "name" : "Expect-CT",
          "value" : "max-age=604800, report-uri=\"https://report-uri.cloudflare.com/cdn-cgi/beacon/expect-ct\""
        } ],
        "content" : {
          "size" : 277,
          "mimeType" : "application/json; charset=UTF-8",
          "text" : "{\"uuid\":\"6ee29403ea351e13483cc101a7ce8878\",\"token_id\":\"04e299e8417445c3827b16df10292ddc1594267967013485\",\"name\":\"Picker cp\",\"phone_number\":\"628111111111\",\"email\":\"ooo-picker54@ctcd.com\",\"access_level\":\"picker\",\"merchant_name\":\"Transmart\",\"store_name\":\"Transmart Central Park\"}\n",
          "comment" : ""
        },
        "redirectURL" : "",
        "headersSize" : 645,
        "bodySize" : -1,
        "comment" : ""
      },
      "cache" : { },
      "timings" : {
        "comment" : "",
        "connect" : 2557,
        "ssl" : -1,
        "dns" : -1,
        "blocked" : -1,
        "send" : 0,
        "wait" : 0,
        "receive" : 0
      },
      "comment" : "",
      "_katalonRequestInformation" : {
        "name" : "3",
        "testObjectId" : "Object Repository/API/PickerApps/1_User/1_Login_UserPickApps",
        "harId" : "a8640361-0f92-4db4-8699-9b57d3a5a001",
        "reportFolder" : null
      },
      "time" : 2557
    } ],
    "comment" : ""
  }
}