{
  "log" : {
    "version" : "1.2",
    "pages" : [ ],
    "entries" : [ {
      "startedDateTime" : "2020-07-09T04:12:49.551Z",
      "request" : {
        "method" : "POST",
        "url" : "https://pickpack-core-api-stg.ctdigital.id/picker/get/order/headers/v1",
        "httpVersion" : "",
        "cookies" : [ ],
        "headers" : [ {
          "name" : "Content-Type",
          "value" : "application/json"
        } ],
        "queryString" : [ ],
        "postData" : {
          "mimeType" : "application/json",
          "text" : "{\n    \"last_modified_date\": \"2020-07-09 01:01:01.123456\",\n    \"token_id\": \"04e299e8417445c3827b16df10292ddc1594267967013485\"\n}",
          "comment" : ""
        },
        "headersSize" : 0,
        "bodySize" : 0,
        "comment" : ""
      },
      "response" : {
        "status" : 200,
        "statusText" : "",
        "httpVersion" : "",
        "cookies" : [ ],
        "headers" : [ {
          "name" : "Transfer-Encoding",
          "value" : "chunked"
        }, {
          "name" : "x-envoy-upstream-service-time",
          "value" : "12"
        }, {
          "name" : "Server",
          "value" : "cloudflare"
        }, {
          "name" : "CF-RAY",
          "value" : "5aff357a5c68cc20-SIN"
        }, {
          "name" : "vary",
          "value" : "Origin"
        }, {
          "name" : "X-Content-Type-Options",
          "value" : "nosniff"
        }, {
          "name" : "Connection",
          "value" : "keep-alive"
        }, {
          "name" : "Date",
          "value" : "Thu, 09 Jul 2020 04:12:49 GMT"
        }, {
          "name" : "access-control-allow-origin",
          "value" : "*"
        }, {
          "name" : "CF-Cache-Status",
          "value" : "DYNAMIC"
        }, {
          "name" : "Strict-Transport-Security",
          "value" : "max-age=2592000; includeSubDomains; preload"
        }, {
          "name" : "Set-Cookie",
          "value" : "__cfduid=d71f1924bd1a26f357e93933fd79e655d1594267969; expires=Sat, 08-Aug-20 04:12:49 GMT; path=/; domain=.ctdigital.id; HttpOnly; SameSite=Lax"
        }, {
          "name" : "#status#",
          "value" : "HTTP/1.1 200 OK"
        }, {
          "name" : "Content-Type",
          "value" : "application/json; charset=UTF-8"
        }, {
          "name" : "cf-request-id",
          "value" : "03d35fc0720000cc20bd38f200000001"
        }, {
          "name" : "Expect-CT",
          "value" : "max-age=604800, report-uri=\"https://report-uri.cloudflare.com/cdn-cgi/beacon/expect-ct\""
        } ],
        "content" : {
          "size" : 1819,
          "mimeType" : "application/json; charset=UTF-8",
          "text" : "[{\"user_id\":\"\",\"order_header_uid\":\"588faca2e0ef45beb71072d8d57be97a95341200307052009120vuguieaane2327090493\",\"order_id\":\"TRTLMRT001T812-1\",\"order_name\":\"ORD 01\",\"order_number\":1,\"order_type\":2,\"order_awb\":\"\",\"order_action\":0,\"order_date\":\"2020-07-01 14:56:01\",\"merchant_code\":\"TRTLMRT001\",\"merchant_name\":\"Transmart\",\"store_code\":\"10059\",\"store_name\":\"Transmart Central Park\",\"reference_number\":\"TRTLMRT001T813\",\"customer_name\":\"muhammad nur trianto Qahfi saDam\",\"customer_phone\":\"080989898989\",\"customer_email\":\"Bambang@gmail.com\",\"shipping_address\":\"Jl. Kapten Tendean No.12-14A, RT.2/RW.2, Jakarta SElatan\",\"logistic_courier_code\":0,\"logistic_courier_name\":\"\",\"logistic_courier_type_code\":2,\"logistic_courier_type_name\":\"\",\"receiver_name\":\"Bambang\",\"receiver_phone\":\"0809898989\",\"estimated_pickup_date\":\"2020-07-01 17:01:01\",\"pickup_date\":\"2020-07-01 17:01:01\",\"modified_date\":\"2020-07-09 03:05:41.953070\"},{\"user_id\":\"\",\"order_header_uid\":\"88aba0dd356d46e88e8795c63317d95912237200307232009296hqmnulgqpl5195605483\",\"order_id\":\"TRTLMRT001T799-1\",\"order_name\":\"ORD 02\",\"order_number\":2,\"order_type\":2,\"order_awb\":\"\",\"order_action\":0,\"order_date\":\"2020-07-01 14:56:01\",\"merchant_code\":\"TRTLMRT001\",\"merchant_name\":\"Transmart\",\"store_code\":\"10059\",\"store_name\":\"Transmart Central Park\",\"reference_number\":\"TRTLMRT001T800\",\"customer_name\":\"muhammad nur trianto Qahfi saDam\",\"customer_phone\":\"080989898989\",\"customer_email\":\"Bambang@gmail.com\",\"shipping_address\":\"Jl. Kapten Tendean No.12-14A, RT.2/RW.2, Jakarta SElatan\",\"logistic_courier_code\":0,\"logistic_courier_name\":\"\",\"logistic_courier_type_code\":2,\"logistic_courier_type_name\":\"\",\"receiver_name\":\"Bambang\",\"receiver_phone\":\"0809898989\",\"estimated_pickup_date\":\"2020-07-01 17:01:01\",\"pickup_date\":\"2020-07-01 17:01:01\",\"modified_date\":\"2020-07-09 03:23:37.122033\"}]",
          "comment" : ""
        },
        "redirectURL" : "",
        "headersSize" : 644,
        "bodySize" : -1,
        "comment" : ""
      },
      "cache" : { },
      "timings" : {
        "comment" : "",
        "connect" : 145,
        "ssl" : -1,
        "dns" : -1,
        "blocked" : -1,
        "send" : 0,
        "wait" : 0,
        "receive" : 0
      },
      "comment" : "",
      "_katalonRequestInformation" : {
        "name" : "4",
        "testObjectId" : "Object Repository/API/PickerApps/2_Order/1_get_orders_headers",
        "harId" : "2b747c0c-bc15-4a10-a4ce-45f5ba41486c",
        "reportFolder" : null
      },
      "time" : 145
    } ],
    "comment" : ""
  }
}