{
  "log" : {
    "version" : "1.2",
    "pages" : [ ],
    "entries" : [ {
      "startedDateTime" : "2020-07-09T04:12:52.555Z",
      "request" : {
        "method" : "POST",
        "url" : "https://pickpack-core-api-stg.ctdigital.id/picker/create/task/v1",
        "httpVersion" : "",
        "cookies" : [ ],
        "headers" : [ {
          "name" : "Content-Type",
          "value" : "application/json"
        } ],
        "queryString" : [ ],
        "postData" : {
          "mimeType" : "application/json",
          "text" : "{\n    \"order_header_uids\": [\n        \"588faca2e0ef45beb71072d8d57be97a95341200307052009120vuguieaane2327090493\",\n        \"88aba0dd356d46e88e8795c63317d95912237200307232009296hqmnulgqpl5195605483\"\n    ],\n    \"token_id\": \"04e299e8417445c3827b16df10292ddc1594267967013485\"\n}",
          "comment" : ""
        },
        "headersSize" : 0,
        "bodySize" : 0,
        "comment" : ""
      },
      "response" : {
        "status" : 200,
        "statusText" : "",
        "httpVersion" : "",
        "cookies" : [ ],
        "headers" : [ {
          "name" : "Transfer-Encoding",
          "value" : "chunked"
        }, {
          "name" : "x-envoy-upstream-service-time",
          "value" : "923"
        }, {
          "name" : "Server",
          "value" : "cloudflare"
        }, {
          "name" : "CF-RAY",
          "value" : "5aff358d1a4901ab-SIN"
        }, {
          "name" : "vary",
          "value" : "Origin"
        }, {
          "name" : "X-Content-Type-Options",
          "value" : "nosniff"
        }, {
          "name" : "Connection",
          "value" : "keep-alive"
        }, {
          "name" : "Date",
          "value" : "Thu, 09 Jul 2020 04:12:53 GMT"
        }, {
          "name" : "access-control-allow-origin",
          "value" : "*"
        }, {
          "name" : "CF-Cache-Status",
          "value" : "DYNAMIC"
        }, {
          "name" : "Strict-Transport-Security",
          "value" : "max-age=2592000; includeSubDomains; preload"
        }, {
          "name" : "Set-Cookie",
          "value" : "__cfduid=d63ac4644870934f844c927f4d6627e071594267972; expires=Sat, 08-Aug-20 04:12:52 GMT; path=/; domain=.ctdigital.id; HttpOnly; SameSite=Lax"
        }, {
          "name" : "#status#",
          "value" : "HTTP/1.1 200 OK"
        }, {
          "name" : "Content-Type",
          "value" : "application/json; charset=UTF-8"
        }, {
          "name" : "cf-request-id",
          "value" : "03d35fcc2b000001ab7082e200000001"
        }, {
          "name" : "Expect-CT",
          "value" : "max-age=604800, report-uri=\"https://report-uri.cloudflare.com/cdn-cgi/beacon/expect-ct\""
        } ],
        "content" : {
          "size" : 754,
          "mimeType" : "application/json; charset=UTF-8",
          "text" : "{\"toh_uid\":\"b4d4889ca9534a1e8abb278a8862a1ad69752200407122009816fqseyeqnzb1644633558\",\"user_id\":0,\"task_number\":1,\"task_name\":\"TASK 01\",\"task_status\":1,\"task_start_date\":\"2020-07-09 04:12:52.701983\",\"task_pending_date\":null,\"items\":[{\"order_header_uid\":\"588faca2e0ef45beb71072d8d57be97a95341200307052009120vuguieaane2327090493\",\"order_detail_uid\":\"20200709030541958858\",\"item_quantity\":0,\"item_status\":0,\"record_date\":\"2020-07-09 04:12:52.701983\",\"modified_date\":\"2020-07-09 04:12:52.701983\"},{\"order_header_uid\":\"88aba0dd356d46e88e8795c63317d95912237200307232009296hqmnulgqpl5195605483\",\"order_detail_uid\":\"20200709032337140602\",\"item_quantity\":0,\"item_status\":0,\"record_date\":\"2020-07-09 04:12:52.701983\",\"modified_date\":\"2020-07-09 04:12:52.701983\"}]}",
          "comment" : ""
        },
        "redirectURL" : "",
        "headersSize" : 645,
        "bodySize" : -1,
        "comment" : ""
      },
      "cache" : { },
      "timings" : {
        "comment" : "",
        "connect" : 1054,
        "ssl" : -1,
        "dns" : -1,
        "blocked" : -1,
        "send" : 0,
        "wait" : 0,
        "receive" : 0
      },
      "comment" : "",
      "_katalonRequestInformation" : {
        "name" : "5",
        "testObjectId" : "Object Repository/API/PickerApps/2_Order/1_get_orders_headers",
        "harId" : "2505df86-97ab-4a86-8e0e-8f749c8f6d08",
        "reportFolder" : null
      },
      "time" : 1054
    } ],
    "comment" : ""
  }
}