{
  "log" : {
    "version" : "1.2",
    "pages" : [ ],
    "entries" : [ {
      "startedDateTime" : "2020-07-09T04:13:24.209Z",
      "request" : {
        "method" : "POST",
        "url" : "https://pickpack-core-api-stg.ctdigital.id/picker/create/task/v1",
        "httpVersion" : "",
        "cookies" : [ ],
        "headers" : [ {
          "name" : "Content-Type",
          "value" : "application/json"
        } ],
        "queryString" : [ ],
        "postData" : {
          "mimeType" : "application/json",
          "text" : "{\n    \"order_header_uids\": [\n        \"588faca2e0ef45beb71072d8d57be97a95341200307052009120vuguieaane2327090493\",\n        \"88aba0dd356d46e88e8795c63317d95912237200307232009296hqmnulgqpl5195605483\",\n        \"10710cf8de854977bb9f14982408e02152413200407132009880sxqoiyitpw7393168223\"\n    ],\n    \"token_id\": \"28a7cabf490f4d2a8450bb55bc88127f1594267998965666\"\n}",
          "comment" : ""
        },
        "headersSize" : 0,
        "bodySize" : 0,
        "comment" : ""
      },
      "response" : {
        "status" : 202,
        "statusText" : "",
        "httpVersion" : "",
        "cookies" : [ ],
        "headers" : [ {
          "name" : "x-envoy-upstream-service-time",
          "value" : "10"
        }, {
          "name" : "Server",
          "value" : "cloudflare"
        }, {
          "name" : "CF-RAY",
          "value" : "5aff36545d61d9dc-SIN"
        }, {
          "name" : "vary",
          "value" : "Origin"
        }, {
          "name" : "X-Content-Type-Options",
          "value" : "nosniff"
        }, {
          "name" : "Connection",
          "value" : "keep-alive"
        }, {
          "name" : "Date",
          "value" : "Thu, 09 Jul 2020 04:13:24 GMT"
        }, {
          "name" : "access-control-allow-origin",
          "value" : "*"
        }, {
          "name" : "CF-Cache-Status",
          "value" : "DYNAMIC"
        }, {
          "name" : "Strict-Transport-Security",
          "value" : "max-age=2592000; includeSubDomains; preload"
        }, {
          "name" : "Set-Cookie",
          "value" : "__cfduid=d0418358b016c0fe970ddd11f8702f10d1594268004; expires=Sat, 08-Aug-20 04:13:24 GMT; path=/; domain=.ctdigital.id; HttpOnly; SameSite=Lax"
        }, {
          "name" : "#status#",
          "value" : "HTTP/1.1 202 Accepted"
        }, {
          "name" : "Content-Length",
          "value" : "183"
        }, {
          "name" : "Content-Type",
          "value" : "application/json; charset=UTF-8"
        }, {
          "name" : "cf-request-id",
          "value" : "03d36048b60000d9dc6a3df200000001"
        }, {
          "name" : "Expect-CT",
          "value" : "max-age=604800, report-uri=\"https://report-uri.cloudflare.com/cdn-cgi/beacon/expect-ct\""
        } ],
        "content" : {
          "size" : 183,
          "mimeType" : "application/json; charset=UTF-8",
          "text" : "{\"error_code\":311,\"error_message\":\"588faca2e0ef45beb71072d8d57be97a95341200307052009120vuguieaane2327090493,88aba0dd356d46e88e8795c63317d95912237200307232009296hqmnulgqpl5195605483\"}\n",
          "comment" : ""
        },
        "redirectURL" : "",
        "headersSize" : 637,
        "bodySize" : 183,
        "comment" : ""
      },
      "cache" : { },
      "timings" : {
        "comment" : "",
        "ssl" : -1,
        "connect" : 367,
        "dns" : -1,
        "blocked" : -1,
        "send" : 0,
        "wait" : 0,
        "receive" : 0
      },
      "comment" : "",
      "_katalonRequestInformation" : {
        "name" : "5",
        "testObjectId" : "Object Repository/API/PickerApps/2_Order/1_get_orders_headers",
        "harId" : "4debd563-4c57-4bc6-b3a9-d09afefef89e",
        "reportFolder" : null
      },
      "time" : 367
    } ],
    "comment" : ""
  }
}