{
  "log" : {
    "version" : "1.2",
    "pages" : [ ],
    "entries" : [ {
      "startedDateTime" : "2020-07-09T15:08:07.514Z",
      "request" : {
        "method" : "PATCH",
        "url" : "https://oms-tm-api-stg.ctdigital.id/v1/payment",
        "httpVersion" : "",
        "cookies" : [ ],
        "headers" : [ {
          "name" : "dest",
          "value" : "omega"
        }, {
          "name" : "Content-Type",
          "value" : "application/json"
        }, {
          "name" : "Authorization",
          "value" : "Bearer eyJhbGciOiJIUzI1NiIsInR5cCI6IkpXVCJ9.eyJlIjoiYWRtaW5AY3QuY28uaWQiLCJleHAiOjE1OTQzMzYwNzgsImlkIjoxLCJtIjoiVFJUTE1SVDAwMSIsIm4iOiJBZG1pbiIsInIiOiJzdXBlcmFkbWluIiwicyI6ImFsbCJ9.LroZq98JQP3TW8FZCftLMrcpPjVUxtLJnk7uSuquQUM"
        } ],
        "queryString" : [ ],
        "postData" : {
          "mimeType" : "application/json",
          "text" : "{\n    \"reference_number\": \"TRTLMRT001T370\",\n    \"status\": 2,\n    \"amount_adjustment\": 0\n}",
          "comment" : ""
        },
        "headersSize" : 0,
        "bodySize" : 0,
        "comment" : ""
      },
      "response" : {
        "status" : 200,
        "statusText" : "",
        "httpVersion" : "",
        "cookies" : [ ],
        "headers" : [ {
          "name" : "Transfer-Encoding",
          "value" : "chunked"
        }, {
          "name" : "x-request-id",
          "value" : "615602dc-f505-4bab-80bd-8f00c091ef02"
        }, {
          "name" : "x-envoy-upstream-service-time",
          "value" : "979"
        }, {
          "name" : "Server",
          "value" : "cloudflare"
        }, {
          "name" : "CF-RAY",
          "value" : "5b02f567d87ce4f6-LAX"
        }, {
          "name" : "vary",
          "value" : "Origin"
        }, {
          "name" : "x-frame-options",
          "value" : "DENY"
        }, {
          "name" : "Connection",
          "value" : "keep-alive"
        }, {
          "name" : "x-download-options",
          "value" : "noopen"
        }, {
          "name" : "Date",
          "value" : "Thu, 09 Jul 2020 15:08:09 GMT"
        }, {
          "name" : "strict-transport-security",
          "value" : "max-age=2592000; includeSubDomains; preload"
        }, {
          "name" : "CF-Cache-Status",
          "value" : "DYNAMIC"
        }, {
          "name" : "x-content-type-options",
          "value" : "nosniff"
        }, {
          "name" : "x-xss-protection",
          "value" : "1; mode=block"
        }, {
          "name" : "x-dns-prefetch-control",
          "value" : "off"
        }, {
          "name" : "Set-Cookie",
          "value" : "__cfduid=db2aa1c973aa27ff68bad3529c721e0a51594307288; expires=Sat, 08-Aug-20 15:08:08 GMT; path=/; domain=.ctdigital.id; HttpOnly; SameSite=Lax"
        }, {
          "name" : "#status#",
          "value" : "HTTP/1.1 200 OK"
        }, {
          "name" : "Content-Type",
          "value" : "application/json; charset=UTF-8"
        }, {
          "name" : "cf-request-id",
          "value" : "03d5b7b4ea0000e4f6e3a5b200000001"
        }, {
          "name" : "Expect-CT",
          "value" : "max-age=604800, report-uri=\"https://report-uri.cloudflare.com/cdn-cgi/beacon/expect-ct\""
        } ],
        "content" : {
          "size" : 54,
          "mimeType" : "application/json; charset=UTF-8",
          "text" : "{\n  \"content\": null,\n  \"message\": \"\",\n  \"code\": 200\n}\n",
          "comment" : ""
        },
        "redirectURL" : "",
        "headersSize" : 762,
        "bodySize" : -1,
        "comment" : ""
      },
      "cache" : { },
      "timings" : {
        "comment" : "",
        "ssl" : -1,
        "connect" : 2369,
        "blocked" : -1,
        "dns" : -1,
        "send" : 0,
        "wait" : 0,
        "receive" : 0
      },
      "comment" : "",
      "_katalonRequestInformation" : {
        "name" : "2",
        "testObjectId" : "Object Repository/OMS/Patch Order/Update Order Payment",
        "harId" : "b4e55b16-1ebb-492d-b0ab-323a53fdf22c",
        "reportFolder" : null
      },
      "time" : 2369
    } ],
    "comment" : ""
  }
}