{
  "log" : {
    "version" : "1.2",
    "pages" : [ ],
    "entries" : [ {
      "startedDateTime" : "2020-07-09T15:08:16.486Z",
      "request" : {
        "method" : "POST",
        "url" : "https://pickpack-core-api-stg.ctdigital.id/picker/get/order/headers/v1",
        "httpVersion" : "",
        "cookies" : [ ],
        "headers" : [ {
          "name" : "Content-Type",
          "value" : "application/json"
        } ],
        "queryString" : [ ],
        "postData" : {
          "mimeType" : "application/json",
          "text" : "{\n    \"last_modified_date\": \"2020-07-09 01:01:01.123456\",\n    \"token_id\": \"8bdb860d405d4b7789ba706bf89972a31594307293735989\"\n}",
          "comment" : ""
        },
        "headersSize" : 0,
        "bodySize" : 0,
        "comment" : ""
      },
      "response" : {
        "status" : 200,
        "statusText" : "",
        "httpVersion" : "",
        "cookies" : [ ],
        "headers" : [ {
          "name" : "Transfer-Encoding",
          "value" : "chunked"
        }, {
          "name" : "x-envoy-upstream-service-time",
          "value" : "12"
        }, {
          "name" : "Server",
          "value" : "cloudflare"
        }, {
          "name" : "CF-RAY",
          "value" : "5b02f59f9eb2050b-LAX"
        }, {
          "name" : "vary",
          "value" : "Origin"
        }, {
          "name" : "X-Content-Type-Options",
          "value" : "nosniff"
        }, {
          "name" : "Connection",
          "value" : "keep-alive"
        }, {
          "name" : "Date",
          "value" : "Thu, 09 Jul 2020 15:08:17 GMT"
        }, {
          "name" : "access-control-allow-origin",
          "value" : "*"
        }, {
          "name" : "CF-Cache-Status",
          "value" : "DYNAMIC"
        }, {
          "name" : "Strict-Transport-Security",
          "value" : "max-age=2592000; includeSubDomains; preload"
        }, {
          "name" : "Set-Cookie",
          "value" : "__cfduid=d9bcf97a21916165618d7260dac9074c81594307297; expires=Sat, 08-Aug-20 15:08:17 GMT; path=/; domain=.ctdigital.id; HttpOnly; SameSite=Lax"
        }, {
          "name" : "#status#",
          "value" : "HTTP/1.1 200 OK"
        }, {
          "name" : "Content-Type",
          "value" : "application/json; charset=UTF-8"
        }, {
          "name" : "cf-request-id",
          "value" : "03d5b7d7bb0000050b8337d200000001"
        }, {
          "name" : "Expect-CT",
          "value" : "max-age=604800, report-uri=\"https://report-uri.cloudflare.com/cdn-cgi/beacon/expect-ct\""
        } ],
        "content" : {
          "size" : 4556,
          "mimeType" : "application/json; charset=UTF-8",
          "text" : "[{\"user_id\":\"self\",\"order_header_uid\":\"eec2f0266d3a45f7b249e2c57a4db99259753200807132009293eqcobemtqd8561558597\",\"order_id\":\"TRTLMRT001T984-1\",\"order_name\":\"ORD 17\",\"order_number\":17,\"order_type\":2,\"order_awb\":\"\",\"order_action\":11,\"order_date\":\"2020-07-01 14:56:01\",\"merchant_code\":\"TRTLMRT001\",\"merchant_name\":\"Transmart\",\"store_code\":\"10059\",\"store_name\":\"Transmart Central Park\",\"reference_number\":\"TRTLMRT001T985\",\"customer_name\":\"muhammad nur trianto Qahfi saDam\",\"customer_phone\":\"080989898989\",\"customer_email\":\"Bambang@gmail.com\",\"shipping_address\":\"Jl. Kapten Tendean No.12-14A, RT.2/RW.2, Jakarta SElatan\",\"logistic_courier_code\":0,\"logistic_courier_name\":\"\",\"logistic_courier_type_code\":2,\"logistic_courier_type_name\":\"\",\"receiver_name\":\"Bambang\",\"receiver_phone\":\"0809898989\",\"estimated_pickup_date\":\"2020-07-01 17:01:01\",\"pickup_date\":\"2020-07-01 17:01:01\",\"modified_date\":\"2020-07-09 08:14:04.525638\"},{\"user_id\":\"\",\"order_header_uid\":\"b34fc28bf8f443b393eec63eab86341a53851200807162009409vlzojhtgqr0222366054\",\"order_id\":\"TRTLMRT001T687-1\",\"order_name\":\"ORD 18\",\"order_number\":18,\"order_type\":2,\"order_awb\":\"\",\"order_action\":0,\"order_date\":\"2020-07-01 14:56:01\",\"merchant_code\":\"TRTLMRT001\",\"merchant_name\":\"Transmart\",\"store_code\":\"10059\",\"store_name\":\"Transmart Central Park\",\"reference_number\":\"TRTLMRT001T688\",\"customer_name\":\"muhammad nur trianto Qahfi saDam\",\"customer_phone\":\"080989898989\",\"customer_email\":\"Bambang@gmail.com\",\"shipping_address\":\"Jl. Kapten Tendean No.12-14A, RT.2/RW.2, Jakarta SElatan\",\"logistic_courier_code\":0,\"logistic_courier_name\":\"\",\"logistic_courier_type_code\":2,\"logistic_courier_type_name\":\"\",\"receiver_name\":\"Bambang\",\"receiver_phone\":\"0809898989\",\"estimated_pickup_date\":\"2020-07-01 17:01:01\",\"pickup_date\":\"2020-07-01 17:01:01\",\"modified_date\":\"2020-07-09 08:16:51.538398\"},{\"user_id\":\"\",\"order_header_uid\":\"40211558efa44ee4823165c4705121a061029201407342009167kciqrtfvgg9691281278\",\"order_id\":\"TRTLMRT001T476-1\",\"order_name\":\"ORD 19\",\"order_number\":19,\"order_type\":2,\"order_awb\":\"\",\"order_action\":0,\"order_date\":\"2020-07-01 14:56:01\",\"merchant_code\":\"TRTLMRT001\",\"merchant_name\":\"Transmart\",\"store_code\":\"10059\",\"store_name\":\"Transmart Central Park\",\"reference_number\":\"TRTLMRT001T477\",\"customer_name\":\"muhammad nur trianto Qahfi saDam\",\"customer_phone\":\"080989898989\",\"customer_email\":\"Bambang@gmail.com\",\"shipping_address\":\"Jl. Kapten Tendean No.12-14A, RT.2/RW.2, Jakarta SElatan\",\"logistic_courier_code\":0,\"logistic_courier_name\":\"\",\"logistic_courier_type_code\":2,\"logistic_courier_type_name\":\"\",\"receiver_name\":\"Bambang\",\"receiver_phone\":\"0809898989\",\"estimated_pickup_date\":\"2020-07-01 17:01:01\",\"pickup_date\":\"2020-07-01 17:01:01\",\"modified_date\":\"2020-07-09 14:34:29.610151\"},{\"user_id\":\"\",\"order_header_uid\":\"fb1a1d862dc3494480d4bcdd0dc9ad2305525201507062009274ioahglrpan9781261030\",\"order_id\":\"TRTLMRT001T931-1\",\"order_name\":\"ORD 20\",\"order_number\":20,\"order_type\":2,\"order_awb\":\"\",\"order_action\":0,\"order_date\":\"2020-07-01 14:56:01\",\"merchant_code\":\"TRTLMRT001\",\"merchant_name\":\"Transmart\",\"store_code\":\"10059\",\"store_name\":\"Transmart Central Park\",\"reference_number\":\"TRTLMRT001T932\",\"customer_name\":\"muhammad nur trianto Qahfi saDam\",\"customer_phone\":\"080989898989\",\"customer_email\":\"Bambang@gmail.com\",\"shipping_address\":\"Jl. Kapten Tendean No.12-14A, RT.2/RW.2, Jakarta SElatan\",\"logistic_courier_code\":0,\"logistic_courier_name\":\"\",\"logistic_courier_type_code\":2,\"logistic_courier_type_name\":\"\",\"receiver_name\":\"Bambang\",\"receiver_phone\":\"0809898989\",\"estimated_pickup_date\":\"2020-07-01 17:01:01\",\"pickup_date\":\"2020-07-01 17:01:01\",\"modified_date\":\"2020-07-09 15:06:25.055257\"},{\"user_id\":\"\",\"order_header_uid\":\"3d5d916486314aa088910c08ee07a40558210201507082009314rrhyflnjwi5232283065\",\"order_id\":\"TRTLMRT001T369-1\",\"order_name\":\"ORD 21\",\"order_number\":21,\"order_type\":2,\"order_awb\":\"\",\"order_action\":0,\"order_date\":\"2020-07-01 14:56:01\",\"merchant_code\":\"TRTLMRT001\",\"merchant_name\":\"Transmart\",\"store_code\":\"10059\",\"store_name\":\"Transmart Central Park\",\"reference_number\":\"TRTLMRT001T370\",\"customer_name\":\"muhammad nur trianto Qahfi saDam\",\"customer_phone\":\"080989898989\",\"customer_email\":\"Bambang@gmail.com\",\"shipping_address\":\"Jl. Kapten Tendean No.12-14A, RT.2/RW.2, Jakarta SElatan\",\"logistic_courier_code\":0,\"logistic_courier_name\":\"\",\"logistic_courier_type_code\":2,\"logistic_courier_type_name\":\"\",\"receiver_name\":\"Bambang\",\"receiver_phone\":\"0809898989\",\"estimated_pickup_date\":\"2020-07-01 17:01:01\",\"pickup_date\":\"2020-07-01 17:01:01\",\"modified_date\":\"2020-07-09 15:08:10.582301\"}]",
          "comment" : ""
        },
        "redirectURL" : "",
        "headersSize" : 644,
        "bodySize" : -1,
        "comment" : ""
      },
      "cache" : { },
      "timings" : {
        "comment" : "",
        "ssl" : -1,
        "connect" : 1353,
        "blocked" : -1,
        "dns" : -1,
        "send" : 0,
        "wait" : 0,
        "receive" : 0
      },
      "comment" : "",
      "_katalonRequestInformation" : {
        "name" : "4",
        "testObjectId" : "Object Repository/API/PickerApps/2_Order/1_get_orders_headers",
        "harId" : "b5157b4a-f4a2-4e97-88d3-3bd5c8517067",
        "reportFolder" : null
      },
      "time" : 1353
    } ],
    "comment" : ""
  }
}