{
  "log" : {
    "version" : "1.2",
    "pages" : [ ],
    "entries" : [ {
      "startedDateTime" : "2020-07-10T04:13:05.388Z",
      "request" : {
        "method" : "POST",
        "url" : "https://pickpack-core-api-stg.ctdigital.id/sign/in/v1",
        "httpVersion" : "",
        "cookies" : [ ],
        "headers" : [ {
          "name" : "Content-Type",
          "value" : "application/json"
        } ],
        "queryString" : [ ],
        "postData" : {
          "mimeType" : "application/json",
          "text" : "{\n    \"username\": \"ooo-picker54@ctcd.com\",\n    \"password\": \"Picker01@\"\n}",
          "comment" : ""
        },
        "headersSize" : 0,
        "bodySize" : 0,
        "comment" : ""
      },
      "response" : {
        "status" : 200,
        "statusText" : "",
        "httpVersion" : "",
        "cookies" : [ ],
        "headers" : [ {
          "name" : "Transfer-Encoding",
          "value" : "chunked"
        }, {
          "name" : "x-envoy-upstream-service-time",
          "value" : "173"
        }, {
          "name" : "Server",
          "value" : "cloudflare"
        }, {
          "name" : "CF-RAY",
          "value" : "5b0773436f30dcd6-SIN"
        }, {
          "name" : "vary",
          "value" : "Origin"
        }, {
          "name" : "X-Content-Type-Options",
          "value" : "nosniff"
        }, {
          "name" : "Connection",
          "value" : "keep-alive"
        }, {
          "name" : "Date",
          "value" : "Fri, 10 Jul 2020 04:13:06 GMT"
        }, {
          "name" : "access-control-allow-origin",
          "value" : "*"
        }, {
          "name" : "CF-Cache-Status",
          "value" : "DYNAMIC"
        }, {
          "name" : "Strict-Transport-Security",
          "value" : "max-age=2592000; includeSubDomains; preload"
        }, {
          "name" : "Set-Cookie",
          "value" : "__cfduid=dedd550824b3dc2dd381520174844ee771594354386; expires=Sun, 09-Aug-20 04:13:06 GMT; path=/; domain=.ctdigital.id; HttpOnly; SameSite=Lax"
        }, {
          "name" : "#status#",
          "value" : "HTTP/1.1 200 OK"
        }, {
          "name" : "Content-Type",
          "value" : "application/json; charset=UTF-8"
        }, {
          "name" : "cf-request-id",
          "value" : "03d8865e250000dcd61b3cd200000001"
        }, {
          "name" : "Expect-CT",
          "value" : "max-age=604800, report-uri=\"https://report-uri.cloudflare.com/cdn-cgi/beacon/expect-ct\""
        } ],
        "content" : {
          "size" : 277,
          "mimeType" : "application/json; charset=UTF-8",
          "text" : "{\"uuid\":\"6ee29403ea351e13483cc101a7ce8878\",\"token_id\":\"e923a7880a4b4259a2b0bfa26fbd4ed91594354386654832\",\"name\":\"Picker cp\",\"phone_number\":\"628111111111\",\"email\":\"ooo-picker54@ctcd.com\",\"access_level\":\"picker\",\"merchant_name\":\"Transmart\",\"store_name\":\"Transmart Central Park\"}\n",
          "comment" : ""
        },
        "redirectURL" : "",
        "headersSize" : 645,
        "bodySize" : -1,
        "comment" : ""
      },
      "cache" : { },
      "timings" : {
        "comment" : "",
        "ssl" : -1,
        "connect" : 1304,
        "blocked" : -1,
        "dns" : -1,
        "send" : 0,
        "wait" : 0,
        "receive" : 0
      },
      "comment" : "",
      "_katalonRequestInformation" : {
        "name" : "3",
        "testObjectId" : "Object Repository/API/PickerApps/1_User/1_Login_UserPickApps",
        "harId" : "69c17dc0-14b5-4dae-ba99-77cab5535097",
        "reportFolder" : null
      },
      "time" : 1304
    } ],
    "comment" : ""
  }
}