{
  "log" : {
    "version" : "1.2",
    "pages" : [ ],
    "entries" : [ {
      "startedDateTime" : "2020-01-28T04:08:16.190Z",
      "request" : {
        "method" : "POST",
        "url" : "http://34.68.240.28/v1/store",
        "httpVersion" : "",
        "cookies" : [ ],
        "headers" : [ {
          "name" : "dest",
          "value" : "stargazer-mysql"
        }, {
          "name" : "Content-Type",
          "value" : "application/json"
        }, {
          "name" : "Authorization",
          "value" : "bearer eyJhbGciOiJIUzI1NiIsInR5cCI6IkpXVCJ9.eyJleHAiOjE1ODAyMTMyOTV9.nJloiVqE8_PXoMHIyGoZ8WzRwGTGephwkNkkOEWih44"
        } ],
        "queryString" : [ ],
        "postData" : {
          "mimeType" : "application/json",
          "text" : "{\n    \"store_code\": \"EAG-BSMMMMMg\",\n    \"offline_code\": \"EAG-BSM\",\n    \"store_name\": \"Aigner BSM\",\n    \"store_address\": \"Bandung Super Mall GF#A049 Jl. Gatot Subroto, 289 Bandung 40273\",\n    \"store_zipcode\": \"40273\",\n    \"province\": \"JAWA BARAT\",\n    \"city\": \"Kota Bandung\",\n    \"district\": \"Batununggal\",\n    \"latitude\": -6.946683999999999,\n    \"longitude\": 107.668137,\n    \"Phone\": \"02286012315\",\n    \"email\": \"store.eag.bsmmmmmmgmm@transfashionindonesia.com\",\n    \"business_unit_code\": \"TRA\"\n}",
          "comment" : ""
        },
        "headersSize" : 0,
        "bodySize" : 0,
        "comment" : ""
      },
      "response" : {
        "status" : 400,
        "statusText" : "",
        "httpVersion" : "",
        "cookies" : [ ],
        "headers" : [ {
          "name" : "x-request-id",
          "value" : "01425d36-e3f5-4898-ad1a-d5f7ffc7e58d"
        }, {
          "name" : "date",
          "value" : "Tue, 28 Jan 2020 04:08:18 GMT"
        }, {
          "name" : "server",
          "value" : "istio-envoy"
        }, {
          "name" : "x-envoy-upstream-service-time",
          "value" : "2035"
        }, {
          "name" : "vary",
          "value" : "Origin"
        }, {
          "name" : "x-frame-options",
          "value" : "DENY"
        }, {
          "name" : "Connection",
          "value" : "keep-alive"
        }, {
          "name" : "x-download-options",
          "value" : "noopen"
        }, {
          "name" : "strict-transport-security",
          "value" : "max-age=5184000; includeSubDomains"
        }, {
          "name" : "access-control-expose-headers",
          "value" : "Content-Length"
        }, {
          "name" : "Via",
          "value" : "HTTP/1.1 forward.http.proxy:3128"
        }, {
          "name" : "access-control-allow-origin",
          "value" : ""
        }, {
          "name" : "Accept-Ranges",
          "value" : "none"
        }, {
          "name" : "access-control-allow-credentials",
          "value" : "true"
        }, {
          "name" : "x-content-type-options",
          "value" : "nosniff"
        }, {
          "name" : "x-xss-protection",
          "value" : "1; mode=block"
        }, {
          "name" : "x-dns-prefetch-control",
          "value" : "off"
        }, {
          "name" : "content-type",
          "value" : "application/json; charset=UTF-8"
        }, {
          "name" : "#status#",
          "value" : "HTTP/1.1 400 Bad Request"
        }, {
          "name" : "Content-Length",
          "value" : "45"
        } ],
        "content" : {
          "size" : 45,
          "mimeType" : "application/json; charset=UTF-8",
          "text" : "{\n  \"message\": \"Store code already exist.\"\n}\n",
          "comment" : ""
        },
        "redirectURL" : "",
        "headersSize" : 563,
        "bodySize" : 45,
        "comment" : ""
      },
      "cache" : { },
      "timings" : {
        "comment" : "",
        "ssl" : -1,
        "connect" : 2575,
        "blocked" : -1,
        "dns" : -1,
        "send" : 0,
        "wait" : 0,
        "receive" : 0
      },
      "comment" : "",
      "_katalonRequestInformation" : {
        "name" : "1",
        "testObjectId" : "Object Repository/IMS_NEW/Auth/Login",
        "harId" : "e1695033-87b6-432e-95e3-3eccb90c9cfb",
        "reportFolder" : null
      },
      "time" : 2575
    } ],
    "comment" : ""
  }
}