{
  "log" : {
    "version" : "1.2",
    "pages" : [ ],
    "entries" : [ {
      "startedDateTime" : "2020-01-28T04:08:18.984Z",
      "request" : {
        "method" : "POST",
        "url" : "http://34.68.240.28/v1/store/create/bulk",
        "httpVersion" : "",
        "cookies" : [ ],
        "headers" : [ {
          "name" : "dest",
          "value" : "stargazer-mysql"
        }, {
          "name" : "Content-Type",
          "value" : "application/json"
        }, {
          "name" : "Authorization",
          "value" : "bearer eyJhbGciOiJIUzI1NiIsInR5cCI6IkpXVCJ9.eyJleHAiOjE1ODAyMTMyOTV9.nJloiVqE8_PXoMHIyGoZ8WzRwGTGephwkNkkOEWih44"
        } ],
        "queryString" : [ ],
        "postData" : {
          "mimeType" : "application/json",
          "text" : "{\n    \"data\": [\n        {\n            \"store_code\": \"874122322\",\n            \"offline_code\": \"EAG\",\n            \"store_name\": \"halorian\",\n            \"store_address\": \"Papua pinggir, deket galian freeport\",\n            \"store_zipcode\": \"12560\",\n            \"province\": \"PAPUA\",\n            \"city\": \"KOTA PAPUA\",\n            \"district\": \"PAPUA\",\n            \"latitude\": -6.2904541,\n            \"longitude\": 106.796542,\n            \"Phone\": \"021788401272\",\n            \"email\": \"babuneo232@transdigital.co.id\",\n            \"business_unit_code\": \"TRA\"\n        }\n    ]\n}",
          "comment" : ""
        },
        "headersSize" : 0,
        "bodySize" : 0,
        "comment" : ""
      },
      "response" : {
        "status" : 206,
        "statusText" : "",
        "httpVersion" : "",
        "cookies" : [ ],
        "headers" : [ {
          "name" : "x-request-id",
          "value" : "27806274-e3ac-4c66-9a05-5df8515bb857"
        }, {
          "name" : "date",
          "value" : "Tue, 28 Jan 2020 04:08:23 GMT"
        }, {
          "name" : "content-length",
          "value" : "630"
        }, {
          "name" : "server",
          "value" : "istio-envoy"
        }, {
          "name" : "x-envoy-upstream-service-time",
          "value" : "4061"
        }, {
          "name" : "vary",
          "value" : "Origin"
        }, {
          "name" : "x-frame-options",
          "value" : "DENY"
        }, {
          "name" : "Connection",
          "value" : "keep-alive"
        }, {
          "name" : "x-download-options",
          "value" : "noopen"
        }, {
          "name" : "strict-transport-security",
          "value" : "max-age=5184000; includeSubDomains"
        }, {
          "name" : "access-control-expose-headers",
          "value" : "Content-Length"
        }, {
          "name" : "Via",
          "value" : "HTTP/1.1 forward.http.proxy:3128"
        }, {
          "name" : "access-control-allow-origin",
          "value" : ""
        }, {
          "name" : "Accept-Ranges",
          "value" : "none"
        }, {
          "name" : "access-control-allow-credentials",
          "value" : "true"
        }, {
          "name" : "x-content-type-options",
          "value" : "nosniff"
        }, {
          "name" : "x-xss-protection",
          "value" : "1; mode=block"
        }, {
          "name" : "x-dns-prefetch-control",
          "value" : "off"
        }, {
          "name" : "content-type",
          "value" : "application/json; charset=UTF-8"
        }, {
          "name" : "#status#",
          "value" : "HTTP/1.1 206 Partial Content"
        } ],
        "content" : {
          "size" : 630,
          "mimeType" : "application/json; charset=UTF-8",
          "text" : "{\n  \"message\": \"Data invalid.\",\n  \"data\": [\n    {\n      \"store_code\": \"874122322\",\n      \"offline_code\": \"EAG\",\n      \"store_name\": \"halorian\",\n      \"store_address\": \"Papua pinggir, deket galian freeport\",\n      \"store_zipcode\": \"12560\",\n      \"province\": \"PAPUA\",\n      \"city\": \"KOTA PAPUA\",\n      \"district\": \"PAPUA\",\n      \"latitude\": -6.2904541,\n      \"longitude\": 106.796542,\n      \"phone\": \"021788401272\",\n      \"email\": \"babuneo232@transdigital.co.id\",\n      \"error\": {\n        \"store_code\": \"Store code already exist.\",\n        \"store_email\": \"Email already exist.\"\n      },\n      \"business_unit_code\": \"TRA\"\n    }\n  ]\n}\n",
          "comment" : ""
        },
        "redirectURL" : "",
        "headersSize" : 564,
        "bodySize" : 630,
        "comment" : ""
      },
      "cache" : { },
      "timings" : {
        "comment" : "",
        "ssl" : -1,
        "connect" : 4690,
        "blocked" : -1,
        "dns" : -1,
        "send" : 0,
        "wait" : 0,
        "receive" : 0
      },
      "comment" : "",
      "_katalonRequestInformation" : {
        "name" : "2",
        "testObjectId" : "Object Repository/IMS_NEW/Auth/Login",
        "harId" : "6613df34-250d-482d-bef2-c0608c03978d",
        "reportFolder" : null
      },
      "time" : 4690
    } ],
    "comment" : ""
  }
}