{
  "log" : {
    "version" : "1.2",
    "pages" : [ ],
    "entries" : [ {
      "startedDateTime" : "2020-01-29T07:00:15.376Z",
      "request" : {
        "method" : "POST",
        "url" : "http://34.68.240.28/v1/store",
        "httpVersion" : "",
        "cookies" : [ ],
        "headers" : [ {
          "name" : "dest",
          "value" : "stargazer-mysql"
        }, {
          "name" : "Content-Type",
          "value" : "application/json"
        }, {
          "name" : "Authorization",
          "value" : "bearer eyJhbGciOiJIUzI1NiIsInR5cCI6IkpXVCJ9.eyJleHAiOjE1ODAzMTAwMDl9.PaMXXTENRycby1Cqv_5y0ECSq1DT5BB53UqrL4hggl4"
        } ],
        "queryString" : [ ],
        "postData" : {
          "mimeType" : "application/json",
          "text" : "{\n    \"location_code\": \"EAG-TAM\",\n    \"offline_code\": \"EAG-TAM\",\n    \"name\": \"Aigner Taman Anggrek Mall\",\n    \"address\": \"Letjen S. Parman St No.Kav 21, RT.12/RW.1\",\n    \"zipcode\": \"11470\",\n    \"province\": \"DKI JAKARTA\",\n    \"city\": \"Kota Jakarta Barat\",\n    \"district\": \"Grogol petamburan\",\n    \"latitude\": -6.242,\n    \"longitude\": 106.828,\n    \"Phone\": \"0218000001\",\n    \"email\": \"na7@transfashionindonesia.com\",\n    \"business_unit_code\": \"TRTLTFI001\"\n}",
          "comment" : ""
        },
        "headersSize" : 0,
        "bodySize" : 0,
        "comment" : ""
      },
      "response" : {
        "status" : 400,
        "statusText" : "",
        "httpVersion" : "",
        "cookies" : [ ],
        "headers" : [ {
          "name" : "x-request-id",
          "value" : "ef209235-44e8-4893-b9b9-2d3e718f2f80"
        }, {
          "name" : "date",
          "value" : "Wed, 29 Jan 2020 07:00:16 GMT"
        }, {
          "name" : "content-length",
          "value" : "136"
        }, {
          "name" : "server",
          "value" : "istio-envoy"
        }, {
          "name" : "x-envoy-upstream-service-time",
          "value" : "1012"
        }, {
          "name" : "vary",
          "value" : "Origin"
        }, {
          "name" : "x-frame-options",
          "value" : "DENY"
        }, {
          "name" : "Connection",
          "value" : "keep-alive"
        }, {
          "name" : "x-download-options",
          "value" : "noopen"
        }, {
          "name" : "strict-transport-security",
          "value" : "max-age=5184000; includeSubDomains"
        }, {
          "name" : "access-control-expose-headers",
          "value" : "Content-Length"
        }, {
          "name" : "Via",
          "value" : "HTTP/1.1 forward.http.proxy:3128"
        }, {
          "name" : "access-control-allow-origin",
          "value" : ""
        }, {
          "name" : "access-control-allow-credentials",
          "value" : "true"
        }, {
          "name" : "x-content-type-options",
          "value" : "nosniff"
        }, {
          "name" : "x-xss-protection",
          "value" : "1; mode=block"
        }, {
          "name" : "x-dns-prefetch-control",
          "value" : "off"
        }, {
          "name" : "content-type",
          "value" : "application/json; charset=UTF-8"
        }, {
          "name" : "#status#",
          "value" : "HTTP/1.1 400 Bad Request"
        } ],
        "content" : {
          "size" : 136,
          "mimeType" : "application/json; charset=UTF-8",
          "text" : "{\n  \"message\": {\n    \"store_address\": \"cannot be blank\",\n    \"store_code\": \"cannot be blank\",\n    \"store_name\": \"cannot be blank\"\n  }\n}\n",
          "comment" : ""
        },
        "redirectURL" : "",
        "headersSize" : 547,
        "bodySize" : 136,
        "comment" : ""
      },
      "cache" : { },
      "timings" : {
        "comment" : "",
        "ssl" : -1,
        "connect" : 1427,
        "wait" : 0,
        "receive" : 0,
        "blocked" : -1,
        "send" : 0,
        "dns" : -1
      },
      "comment" : "",
      "_katalonRequestInformation" : {
        "name" : "3",
        "testObjectId" : "Object Repository/IMS_NEW/Auth/Login",
        "harId" : "923df325-44a0-4d85-aa76-285fcfdcffb0",
        "reportFolder" : null
      },
      "time" : 1427
    } ],
    "comment" : ""
  }
}