{
  "log" : {
    "version" : "1.2",
    "pages" : [ ],
    "entries" : [ {
      "startedDateTime" : "2020-07-09T02:23:34.930Z",
      "request" : {
        "method" : "POST",
        "url" : "https://pickpack-core-api-stg.ctdigital.id/picker/get/order/headers/v1",
        "httpVersion" : "",
        "cookies" : [ ],
        "headers" : [ {
          "name" : "Content-Type",
          "value" : "application/json"
        } ],
        "queryString" : [ ],
        "postData" : {
          "mimeType" : "application/json",
          "text" : "{\n    \"last_modified_date\": \"2020-07-09 01:01:01.123456\",\n    \"token_id\": \"bcd4e66df83944c4a63f0948beb11c501594261412350281\"\n}",
          "comment" : ""
        },
        "headersSize" : 0,
        "bodySize" : 0,
        "comment" : ""
      },
      "response" : {
        "status" : 200,
        "statusText" : "",
        "httpVersion" : "",
        "cookies" : [ ],
        "headers" : [ {
          "name" : "Transfer-Encoding",
          "value" : "chunked"
        }, {
          "name" : "x-envoy-upstream-service-time",
          "value" : "6"
        }, {
          "name" : "Server",
          "value" : "cloudflare"
        }, {
          "name" : "CF-RAY",
          "value" : "5afe9573ef73cbf8-SIN"
        }, {
          "name" : "vary",
          "value" : "Origin"
        }, {
          "name" : "X-Content-Type-Options",
          "value" : "nosniff"
        }, {
          "name" : "Connection",
          "value" : "keep-alive"
        }, {
          "name" : "Date",
          "value" : "Thu, 09 Jul 2020 02:23:35 GMT"
        }, {
          "name" : "access-control-allow-origin",
          "value" : "*"
        }, {
          "name" : "CF-Cache-Status",
          "value" : "DYNAMIC"
        }, {
          "name" : "Strict-Transport-Security",
          "value" : "max-age=2592000; includeSubDomains; preload"
        }, {
          "name" : "Set-Cookie",
          "value" : "__cfduid=dedae1f7e57bc42d2ee0c2972625b882b1594261415; expires=Sat, 08-Aug-20 02:23:35 GMT; path=/; domain=.ctdigital.id; HttpOnly; SameSite=Lax"
        }, {
          "name" : "#status#",
          "value" : "HTTP/1.1 200 OK"
        }, {
          "name" : "Content-Type",
          "value" : "application/json; charset=UTF-8"
        }, {
          "name" : "cf-request-id",
          "value" : "03d2fbbc730000cbf8cf00a200000001"
        }, {
          "name" : "Expect-CT",
          "value" : "max-age=604800, report-uri=\"https://report-uri.cloudflare.com/cdn-cgi/beacon/expect-ct\""
        } ],
        "content" : {
          "size" : 903,
          "mimeType" : "application/json; charset=UTF-8",
          "text" : "[{\"user_id\":\"self\",\"order_header_uid\":\"9a101ccad7aa4b019192a0459467009038038200107422009775unhhlerwvy4505278986\",\"order_id\":\"TRTLMRT001T917-1\",\"order_name\":\"ORD 67\",\"order_number\":67,\"order_type\":2,\"order_awb\":\"\",\"order_action\":11,\"order_date\":\"2020-07-01 14:56:01\",\"merchant_code\":\"TRTLMRT001\",\"merchant_name\":\"Transmart\",\"store_code\":\"10059\",\"store_name\":\"Transmart Central Park\",\"reference_number\":\"TRTLMRT001T918\",\"customer_name\":\"muhammad nur trianto Qahfi saDam\",\"customer_phone\":\"080989898989\",\"customer_email\":\"Bambang@gmail.com\",\"shipping_address\":\"Jl. Kapten Tendean No.12-14A, RT.2/RW.2, Jakarta SElatan\",\"logistic_courier_code\":0,\"logistic_courier_name\":\"\",\"logistic_courier_type_code\":2,\"logistic_courier_type_name\":\"\",\"receiver_name\":null,\"receiver_phone\":null,\"estimated_pickup_date\":\"2020-07-01 17:01:01\",\"pickup_date\":\"2020-07-01 17:01:01\",\"modified_date\":\"2020-07-09 01:43:26.093848\"}]",
          "comment" : ""
        },
        "redirectURL" : "",
        "headersSize" : 643,
        "bodySize" : -1,
        "comment" : ""
      },
      "cache" : { },
      "timings" : {
        "comment" : "",
        "ssl" : -1,
        "connect" : 141,
        "dns" : -1,
        "blocked" : -1,
        "send" : 0,
        "wait" : 0,
        "receive" : 0
      },
      "comment" : "",
      "_katalonRequestInformation" : {
        "name" : "4",
        "testObjectId" : "Object Repository/API/PickerApps/2_Order/1_get_orders_headers",
        "harId" : "138d9572-7691-4b3e-8775-49ca4c385a83",
        "reportFolder" : null
      },
      "time" : 141
    } ],
    "comment" : ""
  }
}