{
  "log" : {
    "version" : "1.2",
    "pages" : [ ],
    "entries" : [ {
      "startedDateTime" : "2020-07-09T02:23:37.529Z",
      "request" : {
        "method" : "POST",
        "url" : "https://pickpack-core-api-stg.ctdigital.id/picker/create/task/v1",
        "httpVersion" : "",
        "cookies" : [ ],
        "headers" : [ {
          "name" : "Content-Type",
          "value" : "application/json"
        } ],
        "queryString" : [ ],
        "postData" : {
          "mimeType" : "application/json",
          "text" : "{\n    \"order_header_uids\": [\n        \"9a101ccad7aa4b019192a0459467009038038200107422009775unhhlerwvy4505278986\"\n    ],\n    \"token_id\": \"bcd4e66df83944c4a63f0948beb11c501594261412350281\"\n}",
          "comment" : ""
        },
        "headersSize" : 0,
        "bodySize" : 0,
        "comment" : ""
      },
      "response" : {
        "status" : 202,
        "statusText" : "",
        "httpVersion" : "",
        "cookies" : [ ],
        "headers" : [ {
          "name" : "x-envoy-upstream-service-time",
          "value" : "3"
        }, {
          "name" : "Server",
          "value" : "cloudflare"
        }, {
          "name" : "CF-RAY",
          "value" : "5afe95841d9ac32c-SIN"
        }, {
          "name" : "vary",
          "value" : "Origin"
        }, {
          "name" : "X-Content-Type-Options",
          "value" : "nosniff"
        }, {
          "name" : "Connection",
          "value" : "keep-alive"
        }, {
          "name" : "Date",
          "value" : "Thu, 09 Jul 2020 02:23:37 GMT"
        }, {
          "name" : "access-control-allow-origin",
          "value" : "*"
        }, {
          "name" : "CF-Cache-Status",
          "value" : "DYNAMIC"
        }, {
          "name" : "Strict-Transport-Security",
          "value" : "max-age=2592000; includeSubDomains; preload"
        }, {
          "name" : "Set-Cookie",
          "value" : "__cfduid=dccf6771c2ddcbbfad9183dbb4526181f1594261417; expires=Sat, 08-Aug-20 02:23:37 GMT; path=/; domain=.ctdigital.id; HttpOnly; SameSite=Lax"
        }, {
          "name" : "#status#",
          "value" : "HTTP/1.1 202 Accepted"
        }, {
          "name" : "Content-Length",
          "value" : "110"
        }, {
          "name" : "Content-Type",
          "value" : "application/json; charset=UTF-8"
        }, {
          "name" : "cf-request-id",
          "value" : "03d2fbc68c0000c32c2a241200000001"
        }, {
          "name" : "Expect-CT",
          "value" : "max-age=604800, report-uri=\"https://report-uri.cloudflare.com/cdn-cgi/beacon/expect-ct\""
        } ],
        "content" : {
          "size" : 110,
          "mimeType" : "application/json; charset=UTF-8",
          "text" : "{\"error_code\":311,\"error_message\":\"9a101ccad7aa4b019192a0459467009038038200107422009775unhhlerwvy4505278986\"}\n",
          "comment" : ""
        },
        "redirectURL" : "",
        "headersSize" : 636,
        "bodySize" : 110,
        "comment" : ""
      },
      "cache" : { },
      "timings" : {
        "comment" : "",
        "ssl" : -1,
        "connect" : 124,
        "dns" : -1,
        "blocked" : -1,
        "send" : 0,
        "wait" : 0,
        "receive" : 0
      },
      "comment" : "",
      "_katalonRequestInformation" : {
        "name" : "5",
        "testObjectId" : "Object Repository/API/PickerApps/2_Order/1_get_orders_headers",
        "harId" : "33c1527d-2d76-4fed-8056-4e739ac2286f",
        "reportFolder" : null
      },
      "time" : 124
    } ],
    "comment" : ""
  }
}