{
  "log" : {
    "version" : "1.2",
    "pages" : [ ],
    "entries" : [ {
      "startedDateTime" : "2020-07-09T05:00:49.231Z",
      "request" : {
        "method" : "POST",
        "url" : "https://oms-tm-api-stg.ctdigital.id/v1/orders",
        "httpVersion" : "",
        "cookies" : [ ],
        "headers" : [ {
          "name" : "dest",
          "value" : "omega"
        }, {
          "name" : "Content-Type",
          "value" : "application/json"
        }, {
          "name" : "Authorization",
          "value" : "Bearer eyJhbGciOiJIUzI1NiIsInR5cCI6IkpXVCJ9.eyJlIjoiYWRtaW5AY3QuY28uaWQiLCJleHAiOjE1OTQyOTk2NDYsImlkIjoxLCJtIjoiVFJUTE1SVDAwMSIsIm4iOiJBZG1pbiIsInIiOiJzdXBlcmFkbWluIiwicyI6ImFsbCJ9.oN8QbcBPYqIqGj4FZXI0Fjk2jKS06-l0nJ1wNDEGHLI"
        } ],
        "queryString" : [ ],
        "postData" : {
          "mimeType" : "application/json",
          "text" : "[\n    {\n        \"order_id\": \"TRTLMRT001T711-1\",\n        \"merchant_code\": \"TRTLMRT001\",\n        \"reference_number\": \"TRTLMRT001T712\",\n        \"order_type\": 2,\n        \"promotion_type\": 1,\n        \"promotion_value\": 100,\n        \"receiver_name\": \"Bambang\",\n        \"receiver_phone\": \"0809898989\",\n        \"order_date\": \"2020-07-01 14:56:01\",\n        \"logistic_courier_type\": 2,\n        \"customer_email\": \"Bambang@gmail.com\",\n        \"customer_name\": \"muhammad nur trianto Qahfi saDam\",\n        \"customer_phone\": \"080989898989\",\n        \"shipping_address\": \"Jl. Kapten Tendean No.12-14A, RT.2/RW.2, Jakarta SElatan\",\n        \"billing_address\": \"Jl. Kapten Tendean No.12-14A, RT.2/RW.2, Jakarta\",\n        \"latitude\": -6.24059,\n        \"longitude\": 106.829977,\n        \"province\": \"DKI Jakarta\",\n        \"city\": \"Kota Jakarta Selatan\",\n        \"district\": \"Cilandak\",\n        \"zip_code\": \"12120\",\n        \"source_channel\": 1,\n        \"source_order\": 1,\n        \"fulfillment_store\": \"10059\",\n        \"time_slot\": \"2020-07-1 18:01:01\",\n        \"sub_total\": 20000,\n        \"shipping_fee\": 0,\n        \"grand_total\": 28000,\n        \"flag_spo\": 1,\n        \"coupon_code\": \"\",\n        \"order_items\": [\n            {\n                \"sku\": \"B12345678GM\",\n                \"quantity\": 2,\n                \"ori_price\": 500000,\n                \"sell_price\": 500000,\n                \"disc_price\": 0,\n                \"sub_total\": 500000,\n                \"paid_price\": 500000,\n                \"coupon_code\": \"\",\n                \"coupon_val\": \"\",\n                \"weight\": 10,\n                \"total_weight\": 100,\n                \"is_warehouse\": false\n            }\n        ],\n        \"payment\": {\n            \"master_payment_id1\": 1010000021,\n            \"pay_ref_number1\": \"111\",\n            \"amount\": 255000,\n            \"split_payment\": 0,\n            \"currency\": 1\n        }\n    }\n]",
          "comment" : ""
        },
        "headersSize" : 0,
        "bodySize" : 0,
        "comment" : ""
      },
      "response" : {
        "status" : 507,
        "statusText" : "",
        "httpVersion" : "",
        "cookies" : [ ],
        "headers" : [ {
          "name" : "x-request-id",
          "value" : "2fa57443-6375-4bb8-8d59-b282d47b249f"
        }, {
          "name" : "x-envoy-upstream-service-time",
          "value" : "49"
        }, {
          "name" : "Server",
          "value" : "cloudflare"
        }, {
          "name" : "CF-RAY",
          "value" : "5aff7bc84df0dd97-SIN"
        }, {
          "name" : "vary",
          "value" : "Origin"
        }, {
          "name" : "x-frame-options",
          "value" : "DENY"
        }, {
          "name" : "Connection",
          "value" : "keep-alive"
        }, {
          "name" : "x-download-options",
          "value" : "noopen"
        }, {
          "name" : "Date",
          "value" : "Thu, 09 Jul 2020 05:00:49 GMT"
        }, {
          "name" : "strict-transport-security",
          "value" : "max-age=2592000; includeSubDomains; preload"
        }, {
          "name" : "CF-Cache-Status",
          "value" : "DYNAMIC"
        }, {
          "name" : "x-content-type-options",
          "value" : "nosniff"
        }, {
          "name" : "x-xss-protection",
          "value" : "1; mode=block"
        }, {
          "name" : "x-dns-prefetch-control",
          "value" : "off"
        }, {
          "name" : "Set-Cookie",
          "value" : "__cfduid=db9f28cb34062aa3cf8cb0620f430d2af1594270849; expires=Sat, 08-Aug-20 05:00:49 GMT; path=/; domain=.ctdigital.id; HttpOnly; SameSite=Lax"
        }, {
          "name" : "#status#",
          "value" : "HTTP/1.1 507 Insufficient Storage"
        }, {
          "name" : "Content-Length",
          "value" : "96"
        }, {
          "name" : "Content-Type",
          "value" : "application/json; charset=UTF-8"
        }, {
          "name" : "cf-request-id",
          "value" : "03d38bb12f0000dd976eb77200000001"
        }, {
          "name" : "Expect-CT",
          "value" : "max-age=604800, report-uri=\"https://report-uri.cloudflare.com/cdn-cgi/beacon/expect-ct\""
        } ],
        "content" : {
          "size" : 96,
          "mimeType" : "application/json; charset=UTF-8",
          "text" : "{\n  \"content\": null,\n  \"message\": \"duplicate reference_number: TRTLMRT001T712\",\n  \"code\": 507\n}\n",
          "comment" : ""
        },
        "redirectURL" : "",
        "headersSize" : 753,
        "bodySize" : 96,
        "comment" : ""
      },
      "cache" : { },
      "timings" : {
        "comment" : "",
        "ssl" : -1,
        "dns" : -1,
        "blocked" : -1,
        "connect" : 186,
        "send" : 0,
        "wait" : 0,
        "receive" : 0
      },
      "comment" : "",
      "_katalonRequestInformation" : {
        "name" : "1",
        "testObjectId" : "Object Repository/OMS/Auth/login",
        "harId" : "25f374ed-2b89-47f6-a3a4-2ab2ba2c77ab",
        "reportFolder" : null
      },
      "time" : 186
    } ],
    "comment" : ""
  }
}