{
  "log" : {
    "version" : "1.2",
    "pages" : [ ],
    "entries" : [ {
      "startedDateTime" : "2020-07-08T04:28:27.080Z",
      "request" : {
        "method" : "POST",
        "url" : "https://pickpack-core-api-stg.ctdigital.id/picker/get/order/headers/v1",
        "httpVersion" : "",
        "cookies" : [ ],
        "headers" : [ {
          "name" : "Content-Type",
          "value" : "application/json"
        } ],
        "queryString" : [ ],
        "postData" : {
          "mimeType" : "application/json",
          "text" : "{\n    \"last_modified_date\": \"2020-01-01 01:01:01.123456\",\n    \"token_id\": \"5a0d5fc966224493b01100934457e02a1594182504604707\"\n}",
          "comment" : ""
        },
        "headersSize" : 0,
        "bodySize" : 0,
        "comment" : ""
      },
      "response" : {
        "status" : 200,
        "statusText" : "",
        "httpVersion" : "",
        "cookies" : [ ],
        "headers" : [ {
          "name" : "Transfer-Encoding",
          "value" : "chunked"
        }, {
          "name" : "x-envoy-upstream-service-time",
          "value" : "23"
        }, {
          "name" : "Server",
          "value" : "cloudflare"
        }, {
          "name" : "CF-RAY",
          "value" : "5af70efdcad40000-SIN"
        }, {
          "name" : "vary",
          "value" : "Origin"
        }, {
          "name" : "X-Content-Type-Options",
          "value" : "nosniff"
        }, {
          "name" : "Connection",
          "value" : "keep-alive"
        }, {
          "name" : "Date",
          "value" : "Wed, 08 Jul 2020 04:28:27 GMT"
        }, {
          "name" : "access-control-allow-origin",
          "value" : "*"
        }, {
          "name" : "CF-Cache-Status",
          "value" : "DYNAMIC"
        }, {
          "name" : "Strict-Transport-Security",
          "value" : "max-age=2592000; includeSubDomains; preload"
        }, {
          "name" : "Set-Cookie",
          "value" : "__cfduid=d6567bf1776d73e61624a17a56f08452d1594182507; expires=Fri, 07-Aug-20 04:28:27 GMT; path=/; domain=.ctdigital.id; HttpOnly; SameSite=Lax"
        }, {
          "name" : "#status#",
          "value" : "HTTP/1.1 200 OK"
        }, {
          "name" : "Content-Type",
          "value" : "application/json; charset=UTF-8"
        }, {
          "name" : "cf-request-id",
          "value" : "03ce47b29f000100e7a88e8200000001"
        }, {
          "name" : "Expect-CT",
          "value" : "max-age=604800, report-uri=\"https://report-uri.cloudflare.com/cdn-cgi/beacon/expect-ct\""
        } ],
        "content" : {
          "size" : 8028,
          "mimeType" : "application/json; charset=UTF-8",
          "text" : "[{\"user_id\":\"\",\"order_header_uid\":\"93d7c0add8c74012b9d3c9840351c41547250200905062022306sgrwswigxc0020410030\",\"order_id\":\"TRTLMRT00PickPack100-1\",\"order_name\":\"ORD 01\",\"order_number\":1,\"order_type\":2,\"order_awb\":\"\",\"order_action\":11,\"order_date\":\"2020-05-22 15:35:01\",\"merchant_code\":\"TRTLMRT001\",\"merchant_name\":\"Transmart\",\"store_code\":\"10059\",\"store_name\":\"Transmart Central Park\",\"reference_number\":\"TRTLMRT00PickPack100\",\"customer_name\":\"agung agriza\",\"customer_phone\":\"080989898989\",\"customer_email\":\"customer@mail.com\",\"shipping_address\":\"Jl. Jakarta pusat no.1\",\"logistic_courier_code\":0,\"logistic_courier_name\":\"\",\"logistic_courier_type_code\":0,\"logistic_courier_type_name\":\"\",\"estimated_pickup_date\":\"2020-05-22 17:21:01\",\"pickup_date\":\"2020-05-22 17:21:01\",\"modified_date\":\"2020-05-22 09:20:13.698937\"},{\"user_id\":\"\",\"order_header_uid\":\"34e0210be7a14872a04f1782a67fa0a770218200905332022192gvdsywatns5983497336\",\"order_id\":\"TRTLMRT00PickPack101-1\",\"order_name\":\"ORD 02\",\"order_number\":2,\"order_type\":2,\"order_awb\":\"\",\"order_action\":11,\"order_date\":\"2020-05-22 16:31:01\",\"merchant_code\":\"TRTLMRT001\",\"merchant_name\":\"Transmart\",\"store_code\":\"10059\",\"store_name\":\"Transmart Central Park\",\"reference_number\":\"TRTLMRT00PickPack101\",\"customer_name\":\"agung agriza\",\"customer_phone\":\"080989898989\",\"customer_email\":\"customer@mail.com\",\"shipping_address\":\"Jl. Jakarta pusat no.1\",\"logistic_courier_code\":0,\"logistic_courier_name\":\"\",\"logistic_courier_type_code\":0,\"logistic_courier_type_name\":\"\",\"estimated_pickup_date\":\"2020-05-22 17:21:01\",\"pickup_date\":\"2020-05-22 17:21:01\",\"modified_date\":\"2020-05-22 09:33:45.589963\"},{\"user_id\":\"\",\"order_header_uid\":\"e2a9d3f008d64a4688bf54a10904be9630736200905382022370ujsagdgjin8368379352\",\"order_id\":\"TRTLMRT00PickPack102-1\",\"order_name\":\"ORD 03\",\"order_number\":3,\"order_type\":2,\"order_awb\":\"\",\"order_action\":11,\"order_date\":\"2020-05-22 16:37:01\",\"merchant_code\":\"TRTLMRT001\",\"merchant_name\":\"Transmart\",\"store_code\":\"10059\",\"store_name\":\"Transmart Central Park\",\"reference_number\":\"TRTLMRT00PickPack102\",\"customer_name\":\"agung agriza\",\"customer_phone\":\"080989898989\",\"customer_email\":\"customer@mail.com\",\"shipping_address\":\"Jl. Jakarta pusat no.1\",\"logistic_courier_code\":0,\"logistic_courier_name\":\"\",\"logistic_courier_type_code\":0,\"logistic_courier_type_name\":\"\",\"estimated_pickup_date\":\"2020-05-22 17:21:01\",\"pickup_date\":\"2020-05-22 17:21:01\",\"modified_date\":\"2020-05-22 09:38:54.241937\"},{\"user_id\":\"\",\"order_header_uid\":\"083f25e4532f42088b8b8d1f41765a9859421200705592027968dxzahiagjm3636681818\",\"order_id\":\"TRTLMRT001T3055-1\",\"order_name\":\"ORD 08\",\"order_number\":8,\"order_type\":2,\"order_awb\":\"\",\"order_action\":0,\"order_date\":\"2020-05-27 14:58:01\",\"merchant_code\":\"TRTLMRT001\",\"merchant_name\":\"Transmart\",\"store_code\":\"10059\",\"store_name\":\"Transmart Central Park\",\"reference_number\":\"TRTLMRT001T3055\",\"customer_name\":\"customer\",\"customer_phone\":\"080989898989\",\"customer_email\":\"customer@gmail.com\",\"shipping_address\":\"Jl. Kapten Tendean No.12-14A, RT.2/RW.2\",\"logistic_courier_code\":0,\"logistic_courier_name\":\"\",\"logistic_courier_type_code\":0,\"logistic_courier_type_name\":\"\",\"estimated_pickup_date\":\"2020-05-27 13:58:01\",\"pickup_date\":\"2020-05-27 13:58:01\",\"modified_date\":\"2020-05-27 07:59:21.594959\"},{\"user_id\":\"\",\"order_header_uid\":\"6d5510428afc415b88cbdf271e663d2289934200705312027860wpcoduehat6202115595\",\"order_id\":\"TRTLMRT00PickPack108-1\",\"order_name\":\"ORD 07\",\"order_number\":7,\"order_type\":2,\"order_awb\":\"\",\"order_action\":11,\"order_date\":\"2020-05-27 14:31:01\",\"merchant_code\":\"TRTLMRT001\",\"merchant_name\":\"Transmart\",\"store_code\":\"10059\",\"store_name\":\"Transmart Central Park\",\"reference_number\":\"TRTLMRT00PickPack108\",\"customer_name\":\"agung\",\"customer_phone\":\"080989898989\",\"customer_email\":\"customer@mail.com\",\"shipping_address\":\"Jl. Jakarta pusat no.1\",\"logistic_courier_code\":0,\"logistic_courier_name\":\"\",\"logistic_courier_type_code\":0,\"logistic_courier_type_name\":\"\",\"estimated_pickup_date\":\"2020-05-27 18:00:00\",\"pickup_date\":\"2020-05-27 18:00:00\",\"modified_date\":\"2020-05-27 10:14:51.306847\"},{\"user_id\":\"\",\"order_header_uid\":\"15b015661b59418c8c6e66a4057e3a4865350201105352026636ovszxwzqts7309708785\",\"order_id\":\"TRTLMRT00PickPack104-1\",\"order_name\":\"ORD 04\",\"order_number\":4,\"order_type\":2,\"order_awb\":\"\",\"order_action\":11,\"order_date\":\"2020-05-26 18:32:01\",\"merchant_code\":\"TRTLMRT001\",\"merchant_name\":\"Transmart\",\"store_code\":\"10059\",\"store_name\":\"Transmart Central Park\",\"reference_number\":\"TRTLMRT00PickPack104\",\"customer_name\":\"agung agriza\",\"customer_phone\":\"080989898989\",\"customer_email\":\"customer@mail.com\",\"shipping_address\":\"Jl. Jakarta pusat no.1\",\"logistic_courier_code\":0,\"logistic_courier_name\":\"\",\"logistic_courier_type_code\":0,\"logistic_courier_type_name\":\"\",\"estimated_pickup_date\":\"2020-05-26 18:00:00\",\"pickup_date\":\"2020-05-26 18:00:00\",\"modified_date\":\"2020-05-27 11:02:24.064393\"},{\"user_id\":\"\",\"order_header_uid\":\"524cd5f4c3084d5f870f423452fafa9d33214201005002029684szakgumanf8165234836\",\"order_id\":\"TRTLMRT00PickPack151-1\",\"order_name\":\"ORD 10\",\"order_number\":10,\"order_type\":1,\"order_awb\":\"\",\"order_action\":0,\"order_date\":\"2020-05-29 16:59:01\",\"merchant_code\":\"TRTLMRT001\",\"merchant_name\":\"Transmart\",\"store_code\":\"10059\",\"store_name\":\"Transmart Central Park\",\"reference_number\":\"TRTLMRT00PickPack151\",\"customer_name\":\"ratna\",\"customer_phone\":\"080989898989\",\"customer_email\":\"customer@mail.com\",\"shipping_address\":\"Jl. Jakarta pusat no.1\",\"logistic_courier_code\":0,\"logistic_courier_name\":\"\",\"logistic_courier_type_code\":0,\"logistic_courier_type_name\":\"\",\"estimated_pickup_date\":\"2020-05-29 18:30:00\",\"pickup_date\":\"2020-05-29 18:30:00\",\"modified_date\":\"2020-05-29 10:00:14.332674\"},{\"user_id\":\"\",\"order_header_uid\":\"1f82844eddb4489b8b3a42b4b11b7d1219909201005212029978bffjutvrnp9618521941\",\"order_id\":\"TRTLMRT00PickPack154-1\",\"order_name\":\"ORD 11\",\"order_number\":11,\"order_type\":1,\"order_awb\":\"\",\"order_action\":0,\"order_date\":\"2020-05-29 17:17:01\",\"merchant_code\":\"TRTLMRT001\",\"merchant_name\":\"Transmart\",\"store_code\":\"10059\",\"store_name\":\"Transmart Central Park\",\"reference_number\":\"TRTLMRT00PickPack154\",\"customer_name\":\"andri\",\"customer_phone\":\"080989898989\",\"customer_email\":\"customer@mail.com\",\"shipping_address\":\"Jl. Jakarta pusat no.1\",\"logistic_courier_code\":0,\"logistic_courier_name\":\"\",\"logistic_courier_type_code\":0,\"logistic_courier_type_name\":\"\",\"estimated_pickup_date\":\"2020-05-29 18:30:00\",\"pickup_date\":\"2020-05-29 18:30:00\",\"modified_date\":\"2020-05-29 10:21:09.199922\"},{\"user_id\":\"\",\"order_header_uid\":\"40e9c81c45624bd49de7f11ea200949d12719200606522002350gexjdemzwh2195462126\",\"order_id\":\"TESTTRX01-1\",\"order_name\":\"ORD 12\",\"order_number\":12,\"order_type\":2,\"order_awb\":\"\",\"order_action\":0,\"order_date\":\"2020-06-02 13:04:01\",\"merchant_code\":\"TRTLMRT001\",\"merchant_name\":\"Transmart\",\"store_code\":\"10059\",\"store_name\":\"Transmart Central Park\",\"reference_number\":\"TESTTRX01\",\"customer_name\":\"customer\",\"customer_phone\":\"080989898989\",\"customer_email\":\"custoer@mail.com\",\"shipping_address\":\"Kebon Jeruk\",\"logistic_courier_code\":0,\"logistic_courier_name\":\"\",\"logistic_courier_type_code\":0,\"logistic_courier_type_name\":\"\",\"estimated_pickup_date\":\"2019-06-02 08:40:01\",\"pickup_date\":\"2019-06-02 08:40:01\",\"modified_date\":\"2020-06-02 06:52:19.127339\"},{\"user_id\":\"\",\"order_header_uid\":\"418ec5e7f7954b2bb2f84fdf1ab8fa9190916200806152002416exucwnoapo8006462901\",\"order_id\":\"TESTTRX08-1\",\"order_name\":\"ORD 13\",\"order_number\":13,\"order_type\":2,\"order_awb\":\"\",\"order_action\":11,\"order_date\":\"2020-06-02 15:57:01\",\"merchant_code\":\"TRTLMRT001\",\"merchant_name\":\"Transmart\",\"store_code\":\"10059\",\"store_name\":\"Transmart Central Park\",\"reference_number\":\"TESTTRX08\",\"customer_name\":\"customer\",\"customer_phone\":\"080989898989\",\"customer_email\":\"custoer@mail.com\",\"shipping_address\":\"Kebon Jeruk\",\"logistic_courier_code\":0,\"logistic_courier_name\":\"\",\"logistic_courier_type_code\":0,\"logistic_courier_type_name\":\"\",\"estimated_pickup_date\":\"2020-06-02 14:57:01\",\"pickup_date\":\"2020-06-02 14:57:01\",\"modified_date\":\"2020-06-02 08:16:02.343779\"}]",
          "comment" : ""
        },
        "redirectURL" : "",
        "headersSize" : 644,
        "bodySize" : -1,
        "comment" : ""
      },
      "cache" : { },
      "timings" : {
        "comment" : "",
        "ssl" : -1,
        "dns" : -1,
        "blocked" : -1,
        "connect" : 151,
        "send" : 0,
        "wait" : 0,
        "receive" : 0
      },
      "comment" : "",
      "_katalonRequestInformation" : {
        "name" : "4",
        "testObjectId" : "Object Repository/API/PickerApps/2_Order/1_get_orders_headers",
        "harId" : "5536b0b8-9289-4e21-ab31-4559ac0e1b55",
        "reportFolder" : null
      },
      "time" : 151
    } ],
    "comment" : ""
  }
}