{
  "log" : {
    "version" : "1.2",
    "pages" : [ ],
    "entries" : [ {
      "startedDateTime" : "2020-07-09T07:36:27.769Z",
      "request" : {
        "method" : "POST",
        "url" : "https://pickpack-core-api-stg.ctdigital.id/picker/get/order/headers/v1",
        "httpVersion" : "",
        "cookies" : [ ],
        "headers" : [ {
          "name" : "Content-Type",
          "value" : "application/json"
        } ],
        "queryString" : [ ],
        "postData" : {
          "mimeType" : "application/json",
          "text" : "{\n    \"last_modified_date\": \"2020-07-09 01:01:01.123456\",\n    \"token_id\": \"926972cd4055415b92bc6b75bcab59d81594280185133329\"\n}",
          "comment" : ""
        },
        "headersSize" : 0,
        "bodySize" : 0,
        "comment" : ""
      },
      "response" : {
        "status" : 200,
        "statusText" : "",
        "httpVersion" : "",
        "cookies" : [ ],
        "headers" : [ {
          "name" : "Transfer-Encoding",
          "value" : "chunked"
        }, {
          "name" : "x-envoy-upstream-service-time",
          "value" : "13"
        }, {
          "name" : "Server",
          "value" : "cloudflare"
        }, {
          "name" : "CF-RAY",
          "value" : "5b005fc61e6cddaf-SIN"
        }, {
          "name" : "vary",
          "value" : "Origin"
        }, {
          "name" : "X-Content-Type-Options",
          "value" : "nosniff"
        }, {
          "name" : "Connection",
          "value" : "keep-alive"
        }, {
          "name" : "Date",
          "value" : "Thu, 09 Jul 2020 07:36:27 GMT"
        }, {
          "name" : "access-control-allow-origin",
          "value" : "*"
        }, {
          "name" : "CF-Cache-Status",
          "value" : "DYNAMIC"
        }, {
          "name" : "Strict-Transport-Security",
          "value" : "max-age=2592000; includeSubDomains; preload"
        }, {
          "name" : "Set-Cookie",
          "value" : "__cfduid=d20a3ad2fe483af65b114e4d833633ec01594280187; expires=Sat, 08-Aug-20 07:36:27 GMT; path=/; domain=.ctdigital.id; HttpOnly; SameSite=Lax"
        }, {
          "name" : "#status#",
          "value" : "HTTP/1.1 200 OK"
        }, {
          "name" : "Content-Type",
          "value" : "application/json; charset=UTF-8"
        }, {
          "name" : "cf-request-id",
          "value" : "03d41a2fd00000ddafda9a2200000001"
        }, {
          "name" : "Expect-CT",
          "value" : "max-age=604800, report-uri=\"https://report-uri.cloudflare.com/cdn-cgi/beacon/expect-ct\""
        } ],
        "content" : {
          "size" : 8184,
          "mimeType" : "application/json; charset=UTF-8",
          "text" : "[{\"user_id\":\"\",\"order_header_uid\":\"10710cf8de854977bb9f14982408e02152413200407132009880sxqoiyitpw7393168223\",\"order_id\":\"TRTLMRT001T118-1\",\"order_name\":\"ORD 03\",\"order_number\":3,\"order_type\":2,\"order_awb\":\"\",\"order_action\":0,\"order_date\":\"2020-07-01 14:56:01\",\"merchant_code\":\"TRTLMRT001\",\"merchant_name\":\"Transmart\",\"store_code\":\"10059\",\"store_name\":\"Transmart Central Park\",\"reference_number\":\"TRTLMRT001T119\",\"customer_name\":\"muhammad nur trianto Qahfi saDam\",\"customer_phone\":\"080989898989\",\"customer_email\":\"Bambang@gmail.com\",\"shipping_address\":\"Jl. Kapten Tendean No.12-14A, RT.2/RW.2, Jakarta SElatan\",\"logistic_courier_code\":0,\"logistic_courier_name\":\"\",\"logistic_courier_type_code\":2,\"logistic_courier_type_name\":\"\",\"receiver_name\":\"Bambang\",\"receiver_phone\":\"0809898989\",\"estimated_pickup_date\":\"2020-07-01 17:01:01\",\"pickup_date\":\"2020-07-01 17:01:01\",\"modified_date\":\"2020-07-09 04:13:13.524866\"},{\"user_id\":\"\",\"order_header_uid\":\"277282437dbc43d084c92caad1a13d3918841200407152009807qynerhqddl6206836172\",\"order_id\":\"TRTLMRT001T584-1\",\"order_name\":\"ORD 04\",\"order_number\":4,\"order_type\":2,\"order_awb\":\"\",\"order_action\":0,\"order_date\":\"2020-07-01 14:56:01\",\"merchant_code\":\"TRTLMRT001\",\"merchant_name\":\"Transmart\",\"store_code\":\"10059\",\"store_name\":\"Transmart Central Park\",\"reference_number\":\"TRTLMRT001T585\",\"customer_name\":\"muhammad nur trianto Qahfi saDam\",\"customer_phone\":\"080989898989\",\"customer_email\":\"Bambang@gmail.com\",\"shipping_address\":\"Jl. Kapten Tendean No.12-14A, RT.2/RW.2, Jakarta SElatan\",\"logistic_courier_code\":0,\"logistic_courier_name\":\"\",\"logistic_courier_type_code\":2,\"logistic_courier_type_name\":\"\",\"receiver_name\":\"Bambang\",\"receiver_phone\":\"0809898989\",\"estimated_pickup_date\":\"2020-07-01 17:01:01\",\"pickup_date\":\"2020-07-01 17:01:01\",\"modified_date\":\"2020-07-09 04:15:41.188786\"},{\"user_id\":\"\",\"order_header_uid\":\"e28b3ba983fe4cf684740742b3fb239911145200407162009712atvbsutzib8427577686\",\"order_id\":\"TRTLMRT001T911-1\",\"order_name\":\"ORD 05\",\"order_number\":5,\"order_type\":2,\"order_awb\":\"\",\"order_action\":0,\"order_date\":\"2020-07-01 14:56:01\",\"merchant_code\":\"TRTLMRT001\",\"merchant_name\":\"Transmart\",\"store_code\":\"10059\",\"store_name\":\"Transmart Central Park\",\"reference_number\":\"TRTLMRT001T912\",\"customer_name\":\"muhammad nur trianto Qahfi saDam\",\"customer_phone\":\"080989898989\",\"customer_email\":\"Bambang@gmail.com\",\"shipping_address\":\"Jl. Kapten Tendean No.12-14A, RT.2/RW.2, Jakarta SElatan\",\"logistic_courier_code\":0,\"logistic_courier_name\":\"\",\"logistic_courier_type_code\":2,\"logistic_courier_type_name\":\"\",\"receiver_name\":\"Bambang\",\"receiver_phone\":\"0809898989\",\"estimated_pickup_date\":\"2020-07-01 17:01:01\",\"pickup_date\":\"2020-07-01 17:01:01\",\"modified_date\":\"2020-07-09 04:16:45.111668\"},{\"user_id\":\"\",\"order_header_uid\":\"3e22618a69d5482bb1b23e553c38b63d41711200407422009682ywfnazigzy4097867191\",\"order_id\":\"TRTLMRT001T661-1\",\"order_name\":\"ORD 06\",\"order_number\":6,\"order_type\":2,\"order_awb\":\"\",\"order_action\":0,\"order_date\":\"2020-07-01 14:56:01\",\"merchant_code\":\"TRTLMRT001\",\"merchant_name\":\"Transmart\",\"store_code\":\"10059\",\"store_name\":\"Transmart Central Park\",\"reference_number\":\"TRTLMRT001T662\",\"customer_name\":\"muhammad nur trianto Qahfi saDam\",\"customer_phone\":\"080989898989\",\"customer_email\":\"Bambang@gmail.com\",\"shipping_address\":\"Jl. Kapten Tendean No.12-14A, RT.2/RW.2, Jakarta SElatan\",\"logistic_courier_code\":0,\"logistic_courier_name\":\"\",\"logistic_courier_type_code\":2,\"logistic_courier_type_name\":\"\",\"receiver_name\":\"Bambang\",\"receiver_phone\":\"0809898989\",\"estimated_pickup_date\":\"2020-07-01 17:01:01\",\"pickup_date\":\"2020-07-01 17:01:01\",\"modified_date\":\"2020-07-09 04:42:11.417667\"},{\"user_id\":\"\",\"order_header_uid\":\"7c8eb9d466d846ee8c778bf726661b9293209200407462009338orbihkvnai9539494639\",\"order_id\":\"TRTLMRT001T431-1\",\"order_name\":\"ORD 07\",\"order_number\":7,\"order_type\":2,\"order_awb\":\"\",\"order_action\":0,\"order_date\":\"2020-07-01 14:56:01\",\"merchant_code\":\"TRTLMRT001\",\"merchant_name\":\"Transmart\",\"store_code\":\"10059\",\"store_name\":\"Transmart Central Park\",\"reference_number\":\"TRTLMRT001T432\",\"customer_name\":\"muhammad nur trianto Qahfi saDam\",\"customer_phone\":\"080989898989\",\"customer_email\":\"Bambang@gmail.com\",\"shipping_address\":\"Jl. Kapten Tendean No.12-14A, RT.2/RW.2, Jakarta SElatan\",\"logistic_courier_code\":0,\"logistic_courier_name\":\"\",\"logistic_courier_type_code\":2,\"logistic_courier_type_name\":\"\",\"receiver_name\":\"Bambang\",\"receiver_phone\":\"0809898989\",\"estimated_pickup_date\":\"2020-07-01 17:01:01\",\"pickup_date\":\"2020-07-01 17:01:01\",\"modified_date\":\"2020-07-09 04:46:09.932325\"},{\"user_id\":\"\",\"order_header_uid\":\"1650f40912cf49079499c50ed9bb939248853200507002009290ncdgdqcvfq1018376355\",\"order_id\":\"TRTLMRT001T711-1\",\"order_name\":\"ORD 08\",\"order_number\":8,\"order_type\":2,\"order_awb\":\"\",\"order_action\":0,\"order_date\":\"2020-07-01 14:56:01\",\"merchant_code\":\"TRTLMRT001\",\"merchant_name\":\"Transmart\",\"store_code\":\"10059\",\"store_name\":\"Transmart Central Park\",\"reference_number\":\"TRTLMRT001T712\",\"customer_name\":\"muhammad nur trianto Qahfi saDam\",\"customer_phone\":\"080989898989\",\"customer_email\":\"Bambang@gmail.com\",\"shipping_address\":\"Jl. Kapten Tendean No.12-14A, RT.2/RW.2, Jakarta SElatan\",\"logistic_courier_code\":0,\"logistic_courier_name\":\"\",\"logistic_courier_type_code\":2,\"logistic_courier_type_name\":\"\",\"receiver_name\":\"Bambang\",\"receiver_phone\":\"0809898989\",\"estimated_pickup_date\":\"2020-07-01 17:01:01\",\"pickup_date\":\"2020-07-01 17:01:01\",\"modified_date\":\"2020-07-09 05:00:53.488275\"},{\"user_id\":\"\",\"order_header_uid\":\"a0dd1cad260643ae89835486fb2feccb87131200607532009517ifrclnjuof4477782601\",\"order_id\":\"TRTLMRT001T933-1\",\"order_name\":\"ORD 09\",\"order_number\":9,\"order_type\":2,\"order_awb\":\"\",\"order_action\":0,\"order_date\":\"2020-07-01 14:56:01\",\"merchant_code\":\"TRTLMRT001\",\"merchant_name\":\"Transmart\",\"store_code\":\"10059\",\"store_name\":\"Transmart Central Park\",\"reference_number\":\"TRTLMRT001T934\",\"customer_name\":\"muhammad nur trianto Qahfi saDam\",\"customer_phone\":\"080989898989\",\"customer_email\":\"Bambang@gmail.com\",\"shipping_address\":\"Jl. Kapten Tendean No.12-14A, RT.2/RW.2, Jakarta SElatan\",\"logistic_courier_code\":0,\"logistic_courier_name\":\"\",\"logistic_courier_type_code\":2,\"logistic_courier_type_name\":\"\",\"receiver_name\":\"Bambang\",\"receiver_phone\":\"0809898989\",\"estimated_pickup_date\":\"2020-07-01 17:01:01\",\"pickup_date\":\"2020-07-01 17:01:01\",\"modified_date\":\"2020-07-09 06:53:31.871503\"},{\"user_id\":\"\",\"order_header_uid\":\"84814fa2e81b4a1a97c65f78d87f3c4232538200607572009590mobhywytan6989401815\",\"order_id\":\"TRTLMRT001T483-1\",\"order_name\":\"ORD 10\",\"order_number\":10,\"order_type\":2,\"order_awb\":\"\",\"order_action\":0,\"order_date\":\"2020-07-01 14:56:01\",\"merchant_code\":\"TRTLMRT001\",\"merchant_name\":\"Transmart\",\"store_code\":\"10059\",\"store_name\":\"Transmart Central Park\",\"reference_number\":\"TRTLMRT001T484\",\"customer_name\":\"muhammad nur trianto Qahfi saDam\",\"customer_phone\":\"080989898989\",\"customer_email\":\"Bambang@gmail.com\",\"shipping_address\":\"Jl. Kapten Tendean No.12-14A, RT.2/RW.2, Jakarta SElatan\",\"logistic_courier_code\":0,\"logistic_courier_name\":\"\",\"logistic_courier_type_code\":2,\"logistic_courier_type_name\":\"\",\"receiver_name\":\"Bambang\",\"receiver_phone\":\"0809898989\",\"estimated_pickup_date\":\"2020-07-01 17:01:01\",\"pickup_date\":\"2020-07-01 17:01:01\",\"modified_date\":\"2020-07-09 06:57:38.325515\"},{\"user_id\":\"\",\"order_header_uid\":\"6ccc737da31b426fbd164d7eb7c0425284119200707362009770uxqltmenxn3254168275\",\"order_id\":\"TRTLMRT001T907-1\",\"order_name\":\"ORD 11\",\"order_number\":11,\"order_type\":2,\"order_awb\":\"\",\"order_action\":0,\"order_date\":\"2020-07-01 14:56:01\",\"merchant_code\":\"TRTLMRT001\",\"merchant_name\":\"Transmart\",\"store_code\":\"10059\",\"store_name\":\"Transmart Central Park\",\"reference_number\":\"TRTLMRT001T908\",\"customer_name\":\"muhammad nur trianto Qahfi saDam\",\"customer_phone\":\"080989898989\",\"customer_email\":\"Bambang@gmail.com\",\"shipping_address\":\"Jl. Kapten Tendean No.12-14A, RT.2/RW.2, Jakarta SElatan\",\"logistic_courier_code\":0,\"logistic_courier_name\":\"\",\"logistic_courier_type_code\":2,\"logistic_courier_type_name\":\"\",\"receiver_name\":\"Bambang\",\"receiver_phone\":\"0809898989\",\"estimated_pickup_date\":\"2020-07-01 17:01:01\",\"pickup_date\":\"2020-07-01 17:01:01\",\"modified_date\":\"2020-07-09 07:36:19.841735\"}]",
          "comment" : ""
        },
        "redirectURL" : "",
        "headersSize" : 644,
        "bodySize" : -1,
        "comment" : ""
      },
      "cache" : { },
      "timings" : {
        "comment" : "",
        "ssl" : -1,
        "blocked" : -1,
        "dns" : -1,
        "send" : 0,
        "wait" : 0,
        "receive" : 0,
        "connect" : 146
      },
      "comment" : "",
      "_katalonRequestInformation" : {
        "name" : "4",
        "testObjectId" : "Object Repository/API/PickerApps/2_Order/1_get_orders_headers",
        "harId" : "2c69bd35-4e0a-4bd2-ba78-31604236e6ad",
        "reportFolder" : null
      },
      "time" : 146
    } ],
    "comment" : ""
  }
}