{
  "log" : {
    "version" : "1.2",
    "pages" : [ ],
    "entries" : [ {
      "startedDateTime" : "2020-01-28T10:34:24.508Z",
      "request" : {
        "method" : "POST",
        "url" : "http://34.68.240.28/v1/auth/login",
        "httpVersion" : "",
        "cookies" : [ ],
        "headers" : [ {
          "name" : "dest",
          "value" : "stargazer-mysql"
        }, {
          "name" : "Content-Type",
          "value" : "application/json"
        } ],
        "queryString" : [ ],
        "postData" : {
          "mimeType" : "application/json",
          "text" : "{\n    \"email\": \"rian.eka.cahya@gmail.com\",\n    \"password\": \"rianekacahya\"\n}",
          "comment" : ""
        },
        "headersSize" : 0,
        "bodySize" : 0,
        "comment" : ""
      },
      "response" : {
        "status" : 200,
        "statusText" : "",
        "httpVersion" : "",
        "cookies" : [ ],
        "headers" : [ {
          "name" : "x-request-id",
          "value" : "5c9c7a7c-1a24-43fd-8725-dd2a9c2300df"
        }, {
          "name" : "date",
          "value" : "Tue, 28 Jan 2020 10:34:28 GMT"
        }, {
          "name" : "server",
          "value" : "istio-envoy"
        }, {
          "name" : "x-envoy-upstream-service-time",
          "value" : "3133"
        }, {
          "name" : "vary",
          "value" : "Origin"
        }, {
          "name" : "x-frame-options",
          "value" : "DENY"
        }, {
          "name" : "Connection",
          "value" : "keep-alive"
        }, {
          "name" : "x-download-options",
          "value" : "noopen"
        }, {
          "name" : "strict-transport-security",
          "value" : "max-age=5184000; includeSubDomains"
        }, {
          "name" : "access-control-expose-headers",
          "value" : "Content-Length"
        }, {
          "name" : "Via",
          "value" : "HTTP/1.1 forward.http.proxy:3128"
        }, {
          "name" : "access-control-allow-origin",
          "value" : ""
        }, {
          "name" : "Accept-Ranges",
          "value" : "none"
        }, {
          "name" : "access-control-allow-credentials",
          "value" : "true"
        }, {
          "name" : "x-content-type-options",
          "value" : "nosniff"
        }, {
          "name" : "x-xss-protection",
          "value" : "1; mode=block"
        }, {
          "name" : "x-dns-prefetch-control",
          "value" : "off"
        }, {
          "name" : "content-type",
          "value" : "application/json; charset=UTF-8"
        }, {
          "name" : "#status#",
          "value" : "HTTP/1.1 200 OK"
        }, {
          "name" : "Content-Length",
          "value" : "683"
        } ],
        "content" : {
          "size" : 683,
          "mimeType" : "application/json; charset=UTF-8",
          "text" : "{\n  \"message\": \"success\",\n  \"data\": {\n    \"access_token\": \"eyJhbGciOiJIUzI1NiIsInR5cCI6IkpXVCJ9.eyJleHAiOjE1ODAyMzY0Njh9.FTKopOrmga6DWKmyfZccqeCbgthu5jaGeoXb78wgVlM\",\n    \"expire_at\": \"29-01-2020 01:34:28\",\n    \"user_id\": 1,\n    \"name\": \"Rian Eka Cahya\",\n    \"email\": \"rian.eka.cahya@gmail.com\",\n    \"role\": [\n      {\n        \"role_id\": 1,\n        \"role_name\": \"Administrator\"\n      }\n    ],\n    \"business_unit\": [\n      {\n        \"business_unit_id\": 1,\n        \"business_unit_code\": \"TRA\",\n        \"business_unit_name\": \"Transmart\"\n      },\n      {\n        \"business_unit_id\": 2,\n        \"business_unit_code\": \"TRF\",\n        \"business_unit_name\": \"Transfashion\"\n      }\n    ]\n  }\n}\n",
          "comment" : ""
        },
        "redirectURL" : "",
        "headersSize" : 564,
        "bodySize" : 683,
        "comment" : ""
      },
      "cache" : { },
      "timings" : {
        "comment" : "",
        "connect" : 3888,
        "ssl" : -1,
        "blocked" : -1,
        "dns" : -1,
        "send" : 0,
        "wait" : 0,
        "receive" : 0
      },
      "comment" : "",
      "_katalonRequestInformation" : {
        "name" : "0",
        "testObjectId" : "Object Repository/IMS_NEW/Auth/Login",
        "harId" : "9498edaf-3d8e-4bc8-b8dc-3fe5370af34f",
        "reportFolder" : null
      },
      "time" : 3888
    } ],
    "comment" : ""
  }
}