{
  "log" : {
    "version" : "1.2",
    "pages" : [ ],
    "entries" : [ {
      "startedDateTime" : "2020-01-30T09:11:46.003Z",
      "request" : {
        "method" : "POST",
        "url" : "http://34.87.43.43/oms/v1/orders",
        "httpVersion" : "",
        "cookies" : [ ],
        "headers" : [ {
          "name" : "dest",
          "value" : "omega"
        }, {
          "name" : "Content-Type",
          "value" : "application/json"
        }, {
          "name" : "Authorization",
          "value" : "Bearer eyJhbGciOiJIUzI1NiIsInR5cCI6IkpXVCJ9.eyJlIjoiYWRtaW5AY3QuY28uaWQiLCJleHAiOjE1ODA0MDQzMDMsImlkIjoxLCJtIjoiVFJUTE1SVDAwMSIsIm4iOiJBZG1pbiIsInIiOiJzdXBlcmFkbWluIiwicyI6ImFsbCJ9.Tt5vmhT59c_4wk2w0c-Y6RIiGTfe5jyxJD1iqOnexG8"
        } ],
        "queryString" : [ ],
        "postData" : {
          "mimeType" : "application/json",
          "text" : "[\n    {\n        \"order_id\": \"TRTLMRT001T172-1\",\n        \"merchant_code\": \"TRTLMRT001\",\n        \"reference_number\": \"TRTLMRT001T172\",\n        \"order_type\": 2,\n        \"order_date\": \"2020-01-24 11:01:19\",\n        \"logistic_courier_type\": 1,\n        \"customer_email\": \"customer@mail.com\",\n        \"customer_name\": \"customer\",\n        \"customer_phone\": \"080989898989\",\n        \"shipping_address\": \"Jl. Kapten Tendean No.12-14A, RT.2/RW.2\",\n        \"billing_address\": \"Jl. Kapten Tendean No.12-14A, RT.2/RW.2\",\n        \"latitude\": -6.24059,\n        \"longitude\": 106.829977,\n        \"province\": \"DKI Jakarta\",\n        \"city\": \"Kota Jakarta Selatan\",\n        \"district\": \"Cilandak\",\n        \"zip_code\": \"12120\",\n        \"source_channel\": 1,\n        \"source_order\": 1,\n        \"fulfillment_store\": \"10012\",\n        \"time_slot\": \"2019-12-05 14:38:01\",\n        \"sub_total\": 250000,\n        \"shipping_fee\": 5000,\n        \"grand_total\": 255000,\n        \"order_items\": [\n            {\n                \"sku\": \"PIM0000011832\",\n                \"quantity\": 2,\n                \"ori_price\": 250000,\n                \"sell_price\": 250000,\n                \"disc_price\": 0,\n                \"sub_total\": 250000,\n                \"paid_price\": 255000,\n                \"weight\": 10,\n                \"total_weight\": 100\n            }\n        ],\n        \"payment\": {\n            \"master_payment_id1\": 1,\n            \"pay_ref_number1\": \"ADkajsd213\",\n            \"amount\": 250000,\n            \"split_payment\": 0,\n            \"currency\": 1\n        }\n    }\n]",
          "comment" : ""
        },
        "headersSize" : 0,
        "bodySize" : 0,
        "comment" : ""
      },
      "response" : {
        "status" : 200,
        "statusText" : "",
        "httpVersion" : "",
        "cookies" : [ ],
        "headers" : [ {
          "name" : "date",
          "value" : "Thu, 30 Jan 2020 09:11:45 GMT"
        }, {
          "name" : "content-length",
          "value" : "54"
        }, {
          "name" : "server",
          "value" : "istio-envoy"
        }, {
          "name" : "x-envoy-upstream-service-time",
          "value" : "40"
        }, {
          "name" : "vary",
          "value" : "Origin"
        }, {
          "name" : "x-frame-options",
          "value" : "DENY"
        }, {
          "name" : "Connection",
          "value" : "keep-alive"
        }, {
          "name" : "x-download-options",
          "value" : "noopen"
        }, {
          "name" : "strict-transport-security",
          "value" : "max-age=5184000; includeSubDomains"
        }, {
          "name" : "Via",
          "value" : "HTTP/1.1 forward.http.proxy:3128"
        }, {
          "name" : "x-content-type-options",
          "value" : "nosniff"
        }, {
          "name" : "x-xss-protection",
          "value" : "1; mode=block"
        }, {
          "name" : "x-dns-prefetch-control",
          "value" : "off"
        }, {
          "name" : "content-type",
          "value" : "application/json; charset=UTF-8"
        }, {
          "name" : "#status#",
          "value" : "HTTP/1.1 200 OK"
        } ],
        "content" : {
          "size" : 54,
          "mimeType" : "application/json; charset=UTF-8",
          "text" : "{\n  \"content\": null,\n  \"message\": \"\",\n  \"code\": 200\n}\n",
          "comment" : ""
        },
        "redirectURL" : "",
        "headersSize" : 390,
        "bodySize" : 54,
        "comment" : ""
      },
      "cache" : { },
      "timings" : {
        "comment" : "",
        "ssl" : -1,
        "connect" : 311,
        "blocked" : -1,
        "dns" : -1,
        "send" : 0,
        "wait" : 0,
        "receive" : 0
      },
      "comment" : "",
      "_katalonRequestInformation" : {
        "name" : "2",
        "testObjectId" : "Object Repository/OMS/Auth/login",
        "harId" : "842e4c90-e890-4a26-a5de-798dadff9113",
        "reportFolder" : null
      },
      "time" : 311
    } ],
    "comment" : ""
  }
}