{
  "log" : {
    "version" : "1.2",
    "pages" : [ ],
    "entries" : [ {
      "startedDateTime" : "2020-01-30T07:43:48.890Z",
      "request" : {
        "method" : "POST",
        "url" : "http://ims.api.stg.ctdigital.id/ims/v1/auth/login",
        "httpVersion" : "",
        "cookies" : [ ],
        "headers" : [ {
          "name" : "dest",
          "value" : "stargazer-mysql"
        }, {
          "name" : "Content-Type",
          "value" : "application/json"
        } ],
        "queryString" : [ ],
        "postData" : {
          "mimeType" : "application/json",
          "text" : "{\n    \"email\": \"rian.eka.cahya@gmail.com\",\n    \"password\": \"rahasia\"\n}",
          "comment" : ""
        },
        "headersSize" : 0,
        "bodySize" : 0,
        "comment" : ""
      },
      "response" : {
        "status" : 404,
        "statusText" : "",
        "httpVersion" : "",
        "cookies" : [ ],
        "headers" : [ {
          "name" : "x-request-id",
          "value" : "7ce5659c-1eb7-4924-808b-63c26c013dd1"
        }, {
          "name" : "date",
          "value" : "Thu, 30 Jan 2020 07:43:48 GMT"
        }, {
          "name" : "content-length",
          "value" : "24"
        }, {
          "name" : "server",
          "value" : "istio-envoy"
        }, {
          "name" : "x-envoy-upstream-service-time",
          "value" : "3"
        }, {
          "name" : "vary",
          "value" : "Origin"
        }, {
          "name" : "x-frame-options",
          "value" : "DENY"
        }, {
          "name" : "Connection",
          "value" : "keep-alive"
        }, {
          "name" : "x-download-options",
          "value" : "noopen"
        }, {
          "name" : "strict-transport-security",
          "value" : "max-age=5184000; includeSubDomains"
        }, {
          "name" : "access-control-expose-headers",
          "value" : "Content-Length"
        }, {
          "name" : "Via",
          "value" : "HTTP/1.1 forward.http.proxy:3128"
        }, {
          "name" : "access-control-allow-origin",
          "value" : ""
        }, {
          "name" : "access-control-allow-credentials",
          "value" : "true"
        }, {
          "name" : "x-content-type-options",
          "value" : "nosniff"
        }, {
          "name" : "x-xss-protection",
          "value" : "1; mode=block"
        }, {
          "name" : "x-dns-prefetch-control",
          "value" : "off"
        }, {
          "name" : "content-type",
          "value" : "application/json; charset=UTF-8"
        }, {
          "name" : "#status#",
          "value" : "HTTP/1.1 404 Not Found"
        } ],
        "content" : {
          "size" : 24,
          "mimeType" : "application/json; charset=UTF-8",
          "text" : "{\"message\":\"Not Found\"}\n",
          "comment" : ""
        },
        "redirectURL" : "",
        "headersSize" : 543,
        "bodySize" : 24,
        "comment" : ""
      },
      "cache" : { },
      "timings" : {
        "comment" : "",
        "ssl" : -1,
        "connect" : 278,
        "blocked" : -1,
        "dns" : -1,
        "send" : 0,
        "wait" : 0,
        "receive" : 0
      },
      "comment" : "",
      "_katalonRequestInformation" : {
        "name" : "0",
        "testObjectId" : "Object Repository/IMS_NEW/Auth/Login",
        "harId" : "d6035dc8-5ee9-4b47-a453-27ca3b1cb647",
        "reportFolder" : null
      },
      "time" : 278
    } ],
    "comment" : ""
  }
}