{
  "log" : {
    "version" : "1.2",
    "pages" : [ ],
    "entries" : [ {
      "startedDateTime" : "2020-01-30T07:43:51.854Z",
      "request" : {
        "method" : "POST",
        "url" : "http://ims.api.stg.ctdigital.id/ims/v1/store",
        "httpVersion" : "",
        "cookies" : [ ],
        "headers" : [ {
          "name" : "dest",
          "value" : "stargazer"
        }, {
          "name" : "Content-Type",
          "value" : "application/json"
        }, {
          "name" : "Authorization",
          "value" : "bearer eyJhbGciOiJIUzI1NiIsInR5cCI6IkpXVCJ9.eyJleHAiOjE1ODAzMjQzMDV9.yfSS-tbzsEiMRh0pPPvAYDIeNBhHmWCmp9wMahHYIAQ"
        } ],
        "queryString" : [ ],
        "postData" : {
          "mimeType" : "application/json",
          "text" : "{\n    \"store_id\": \"15\",\n    \"store_code\": \"EAG-TTT\",\n    \"offline_code\": \"EAG-TTT\",\n    \"store_name\": \"Aigner TTT\",\n    \"store_address\": \"Jl.Ciljuknd Date\",\n    \"store_zipcode\": \"32132\",\n    \"province\": \"JAWA BARAT\",\n    \"city\": \"Kota Bandung\",\n    \"district\": \"Batununggal\",\n    \"latitude\": -6.9466877777,\n    \"longitude\": 107.668137,\n    \"Phone\": \"02298098989\",\n    \"email\": \"store.n2@transfashionindonesia.com\",\n    \"business_unit_code\": \"TRTLTFI001\"\n}",
          "comment" : ""
        },
        "headersSize" : 0,
        "bodySize" : 0,
        "comment" : ""
      },
      "response" : {
        "status" : 404,
        "statusText" : "",
        "httpVersion" : "",
        "cookies" : [ ],
        "headers" : [ {
          "name" : "date",
          "value" : "Thu, 30 Jan 2020 07:43:51 GMT"
        }, {
          "name" : "server",
          "value" : "istio-envoy"
        }, {
          "name" : "content-length",
          "value" : "0"
        }, {
          "name" : "Connection",
          "value" : "close"
        }, {
          "name" : "#status#",
          "value" : "HTTP/1.1 404 Not Found"
        }, {
          "name" : "Via",
          "value" : "HTTP/1.1 forward.http.proxy:3128"
        } ],
        "content" : {
          "size" : 0,
          "mimeType" : "",
          "text" : "",
          "comment" : ""
        },
        "redirectURL" : "",
        "headersSize" : 115,
        "bodySize" : 0,
        "comment" : ""
      },
      "cache" : { },
      "timings" : {
        "comment" : "",
        "ssl" : -1,
        "connect" : 81,
        "blocked" : -1,
        "dns" : -1,
        "send" : 0,
        "wait" : 0,
        "receive" : 0
      },
      "comment" : "",
      "_katalonRequestInformation" : {
        "name" : "3",
        "testObjectId" : "Object Repository/IMS_NEW/Auth/Login",
        "harId" : "4b9e8b31-eda9-4a79-b486-05502b911c1d",
        "reportFolder" : null
      },
      "time" : 81
    } ],
    "comment" : ""
  }
}