{
  "log" : {
    "version" : "1.2",
    "pages" : [ ],
    "entries" : [ {
      "startedDateTime" : "2020-07-09T14:34:26.693Z",
      "request" : {
        "method" : "PATCH",
        "url" : "https://oms-tm-api-stg.ctdigital.id/v1/payment",
        "httpVersion" : "",
        "cookies" : [ ],
        "headers" : [ {
          "name" : "dest",
          "value" : "omega"
        }, {
          "name" : "Content-Type",
          "value" : "application/json"
        }, {
          "name" : "Authorization",
          "value" : "Bearer eyJhbGciOiJIUzI1NiIsInR5cCI6IkpXVCJ9.eyJlIjoiYWRtaW5AY3QuY28uaWQiLCJleHAiOjE1OTQzMzQwNTgsImlkIjoxLCJtIjoiVFJUTE1SVDAwMSIsIm4iOiJBZG1pbiIsInIiOiJzdXBlcmFkbWluIiwicyI6ImFsbCJ9.YjY6Kt93kNCXHp376ALRsUi_733spmlw74HhdvcGIOE"
        } ],
        "queryString" : [ ],
        "postData" : {
          "mimeType" : "application/json",
          "text" : "{\n    \"reference_number\": \"TRTLMRT001T477\",\n    \"status\": 2,\n    \"amount_adjustment\": 0\n}",
          "comment" : ""
        },
        "headersSize" : 0,
        "bodySize" : 0,
        "comment" : ""
      },
      "response" : {
        "status" : 200,
        "statusText" : "",
        "httpVersion" : "",
        "cookies" : [ ],
        "headers" : [ {
          "name" : "Transfer-Encoding",
          "value" : "chunked"
        }, {
          "name" : "x-request-id",
          "value" : "b64a205d-086b-46f5-a479-dd3f7bc3df92"
        }, {
          "name" : "x-envoy-upstream-service-time",
          "value" : "914"
        }, {
          "name" : "Server",
          "value" : "cloudflare"
        }, {
          "name" : "CF-RAY",
          "value" : "5b02c41128fee811-LAX"
        }, {
          "name" : "vary",
          "value" : "Origin"
        }, {
          "name" : "x-frame-options",
          "value" : "DENY"
        }, {
          "name" : "Connection",
          "value" : "keep-alive"
        }, {
          "name" : "x-download-options",
          "value" : "noopen"
        }, {
          "name" : "Date",
          "value" : "Thu, 09 Jul 2020 14:34:28 GMT"
        }, {
          "name" : "strict-transport-security",
          "value" : "max-age=2592000; includeSubDomains; preload"
        }, {
          "name" : "CF-Cache-Status",
          "value" : "DYNAMIC"
        }, {
          "name" : "x-content-type-options",
          "value" : "nosniff"
        }, {
          "name" : "x-xss-protection",
          "value" : "1; mode=block"
        }, {
          "name" : "x-dns-prefetch-control",
          "value" : "off"
        }, {
          "name" : "Set-Cookie",
          "value" : "__cfduid=d94c4f705dec6a5b659b0c2e5d5d919021594305267; expires=Sat, 08-Aug-20 14:34:27 GMT; path=/; domain=.ctdigital.id; HttpOnly; SameSite=Lax"
        }, {
          "name" : "#status#",
          "value" : "HTTP/1.1 200 OK"
        }, {
          "name" : "Content-Type",
          "value" : "application/json; charset=UTF-8"
        }, {
          "name" : "cf-request-id",
          "value" : "03d598deb50000e811c7ab1200000001"
        }, {
          "name" : "Expect-CT",
          "value" : "max-age=604800, report-uri=\"https://report-uri.cloudflare.com/cdn-cgi/beacon/expect-ct\""
        } ],
        "content" : {
          "size" : 54,
          "mimeType" : "application/json; charset=UTF-8",
          "text" : "{\n  \"content\": null,\n  \"message\": \"\",\n  \"code\": 200\n}\n",
          "comment" : ""
        },
        "redirectURL" : "",
        "headersSize" : 762,
        "bodySize" : -1,
        "comment" : ""
      },
      "cache" : { },
      "timings" : {
        "comment" : "",
        "ssl" : -1,
        "dns" : -1,
        "blocked" : -1,
        "connect" : 2215,
        "send" : 0,
        "wait" : 0,
        "receive" : 0
      },
      "comment" : "",
      "_katalonRequestInformation" : {
        "name" : "2",
        "testObjectId" : "Object Repository/OMS/Patch Order/Update Order Payment",
        "harId" : "65d433de-62e1-4a38-aa93-e741873b54fb",
        "reportFolder" : null
      },
      "time" : 2215
    } ],
    "comment" : ""
  }
}